task1/pipeline/riscv_waveform.vcd
$date
	Sun Mar 23 19:44:08 2025
$end
$version
	Icarus Verilog
$end
$timescale
	1s
$end
$scope module tb_riscv_sc $end
$var reg 1 ! clk $end
$var reg 1 " start $end
$scope module riscv_DUT $end
$var wire 1 # branchMuxSel $end
$var wire 1 ! clk $end
$var wire 1 " start $end
$var wire 1 $ zero $end
$var wire 32 % writedata [31:0] $end
$var wire 32 & rs2 [31:0] $end
$var wire 32 ' rs1 [31:0] $end
$var wire 1 ( regwrite $end
$var wire 32 ) readata [31:0] $end
$var wire 32 * pco [31:0] $end
$var wire 32 + pci [31:0] $end
$var wire 32 , nextPC [31:0] $end
$var wire 1 - memwrite $end
$var wire 1 . memtoreg $end
$var wire 1 / memread $end
$var wire 32 0 inst [31:0] $end
$var wire 32 1 imm [31:0] $end
$var wire 32 2 branchTarget [31:0] $end
$var wire 1 3 branch $end
$var wire 32 4 B [31:0] $end
$var wire 1 5 ALUsrc $end
$var wire 2 6 ALUop [1:0] $end
$var wire 4 7 ALUctl [3:0] $end
$var wire 32 8 ALUOut [31:0] $end
$scope module m_ALU $end
$var wire 1 $ zero $end
$var wire 1 9 slti $end
$var wire 1 : slt $end
$var wire 32 ; B [31:0] $end
$var wire 4 < ALUCtl [3:0] $end
$var wire 32 = A [31:0] $end
$var reg 32 > ALUOut [31:0] $end
$scope function count_trailing_zeros $end
$upscope $end
$upscope $end
$scope module m_ALUCtrl $end
$var wire 1 ? ctz $end
$var wire 3 @ funct3 [2:0] $end
$var wire 1 A funct7 $end
$var wire 2 B ALUOp [1:0] $end
$var reg 4 C ALUCtl [3:0] $end
$upscope $end
$scope module m_Adder_1 $end
$var wire 32 D b [31:0] $end
$var wire 32 E sum [31:0] $end
$var wire 32 F a [31:0] $end
$upscope $end
$scope module m_Adder_2 $end
$var wire 32 G sum [31:0] $end
$var wire 32 H b [31:0] $end
$var wire 32 I a [31:0] $end
$upscope $end
$scope module m_Control $end
$var wire 7 J opcode [6:0] $end
$var reg 2 K ALUOp [1:0] $end
$var reg 1 5 ALUSrc $end
$var reg 1 3 branch $end
$var reg 1 L ctz $end
$var reg 1 / memRead $end
$var reg 1 - memWrite $end
$var reg 1 . memtoReg $end
$var reg 1 ( regWrite $end
$upscope $end
$scope module m_DataMemory $end
$var wire 32 M address [31:0] $end
$var wire 1 ! clk $end
$var wire 1 / memRead $end
$var wire 1 - memWrite $end
$var wire 1 " rst $end
$var wire 32 N writeData [31:0] $end
$var reg 32 O readData [31:0] $end
$upscope $end
$scope module m_ImmGen $end
$var wire 32 P inst [31:0] $end
$var reg 32 Q imm [31:0] $end
$upscope $end
$scope module m_InstMem $end
$var wire 32 R readAddr [31:0] $end
$var wire 32 S inst [31:0] $end
$upscope $end
$scope module m_Mux_ALU $end
$var wire 32 T s1 [31:0] $end
$var wire 1 5 sel $end
$var wire 32 U s0 [31:0] $end
$var wire 32 V out [31:0] $end
$var parameter 32 W size $end
$upscope $end
$scope module m_Mux_PC $end
$var wire 32 X s0 [31:0] $end
$var wire 32 Y s1 [31:0] $end
$var wire 1 # sel $end
$var wire 32 Z out [31:0] $end
$var parameter 32 [ size $end
$upscope $end
$scope module m_Mux_WriteData $end
$var wire 32 \ s0 [31:0] $end
$var wire 32 ] s1 [31:0] $end
$var wire 1 . sel $end
$var wire 32 ^ out [31:0] $end
$var parameter 32 _ size $end
$upscope $end
$scope module m_PC $end
$var wire 1 ! clk $end
$var wire 32 ` pc_i [31:0] $end
$var wire 1 " rst $end
$var reg 32 a pc_o [31:0] $end
$upscope $end
$scope module m_Register $end
$var wire 1 ! clk $end
$var wire 5 b readReg1 [4:0] $end
$var wire 5 c readReg2 [4:0] $end
$var wire 1 ( regWrite $end
$var wire 1 " rst $end
$var wire 32 d writeData [31:0] $end
$var wire 5 e writeReg [4:0] $end
$var wire 32 f readData2 [31:0] $end
$var wire 32 g readData1 [31:0] $end
$upscope $end
$upscope $end
$upscope $end
$enddefinitions $end
$comment Show the parameter values. $end
$dumpall
b100000 _
b100000 [
b100000 W
$end
#0
$dumpvars
bx g
bx f
bx e
b0 d
bx c
bx b
bx a
bx `
b0 ^
b0 ]
b0 \
bx Z
bx Y
bx X
bx V
bx U
bx T
bx S
bx R
bx Q
bx P
b0 O
bx N
b0 M
xL
bx K
bx J
bx I
bx H
bx G
bx F
bx E
b100 D
b1111 C
bx B
xA
bx @
z?
b0 >
bx =
b1111 <
bx ;
x:
x9
b0 8
b1111 7
bx 6
x5
bx 4
x3
bx 2
bx 1
bx 0
x/
x.
x-
bx ,
bx +
bx *
b0 )
x(
bx '
bx &
b0 %
1$
x#
0"
0!
$end
#5
0$
19
1:
b10100011 %
b10100011 ^
b10100011 d
0#
b10100011 8
b10100011 >
b10100011 M
b10100011 \
b10100011 4
b10100011 ;
b10100011 V
b0 7
b0 <
b0 C
b0 &
b0 N
b0 U
b0 f
b0 '
b0 =
b0 g
03
0/
0.
0-
15
1(
0L
b0 6
b0 B
b0 K
b100 +
b100 Z
b100 `
b0 @
0A
b1000 e
b11 c
b0 b
b10011 J
b10100011 2
b10100011 G
b10100011 Y
b10100011 1
b10100011 H
b10100011 Q
b10100011 T
b1010001100000000010000010011 0
b1010001100000000010000010011 P
b1010001100000000010000010011 S
b100 ,
b100 E
b100 X
b0 *
b0 F
b0 I
b0 R
b0 a
1!
#10
0!
1"
#15
09
b1111100 %
b1111100 ^
b1111100 d
b1111100 8
b1111100 >
b1111100 M
b1111100 \
b10000000 '
b10000000 =
b10000000 g
b11111111111111111111111111111100 4
b11111111111111111111111111111100 ;
b11111111111111111111111111111100 V
1A
b10 e
b11100 c
b10 b
b11111111111111111111111111111100 1
b11111111111111111111111111111100 H
b11111111111111111111111111111100 Q
b11111111111111111111111111111100 T
b11111111110000010000000100010011 0
b11111111110000010000000100010011 P
b11111111110000010000000100010011 S
b1000 +
b1000 Z
b1000 `
b0 2
b0 G
b0 Y
b1000 ,
b1000 E
b1000 X
b100 *
b100 F
b100 I
b100 R
b100 a
1!
#20
0!
#25
1$
0:
b1001 7
b1001 <
b1001 C
b10100011 &
b10100011 N
b10100011 U
b10100011 f
1-
15
0(
b0 4
b0 ;
b0 V
b0 %
b0 ^
b0 d
b10 @
0A
b0 e
b1000 c
b100011 J
b0 1
b0 H
b0 Q
b0 T
b0 8
b0 >
b0 M
b0 \
b100000010010000000100011 0
b100000010010000000100011 P
b100000010010000000100011 S
b1100 +
b1100 Z
b1100 `
b1111100 '
b1111100 =
b1111100 g
b1000 2
b1000 G
b1000 Y
b1100 ,
b1100 E
b1100 X
b1000 *
b1000 F
b1000 I
b1000 R
b1000 a
1!
#30
0!
#35
b0 7
b0 <
b0 C
b0 &
b0 N
b0 U
b0 f
b0 '
b0 =
b0 g
b10 6
b10 B
b10 K
1(
0-
05
b0 @
b1000 e
b0 c
b0 b
b110011 J
b10000110011 0
b10000110011 P
b10000110011 S
b10000 +
b10000 Z
b10000 `
b1100 2
b1100 G
b1100 Y
b10000 ,
b10000 E
b10000 X
b1100 *
b1100 F
b1100 I
b1100 R
b1100 a
1!
#40
0!
#45
15
1(
b0 6
b0 B
b0 K
b101 e
b10011 J
b1010010011 0
b1010010011 P
b1010010011 S
b10100 +
b10100 Z
b10100 `
b10000 2
b10000 G
b10000 Y
b10100 ,
b10100 E
b10100 X
b10000 *
b10000 F
b10000 I
b10000 R
b10000 a
1!
#50
0!
#55
0$
b1 %
b1 ^
b1 d
b1 8
b1 >
b1 M
b1 \
19
1:
b1001 7
b1001 <
b1001 C
b111 4
b111 ;
b111 V
b10 @
b110 e
b111 c
b101 b
b111 1
b111 H
b111 Q
b111 T
b11100101010001100010011 0
b11100101010001100010011 P
b11100101010001100010011 S
b11000 +
b11000 Z
b11000 `
b11011 2
b11011 G
b11011 Y
b11000 ,
b11000 E
b11000 X
b10100 *
b10100 F
b10100 I
b10100 R
b10100 a
1!
#60
0!
#65
09
0:
b1 %
b1 ^
b1 d
b1 8
b1 >
b1 M
b1 \
b1010 7
b1010 <
b1010 C
b1 '
b1 =
b1 g
b1 6
b1 B
b1 K
13
05
0(
b0 4
b0 ;
b0 V
b0 @
b1100 e
b0 c
b110 b
b1100011 J
b1100 1
b1100 H
b1100 Q
b1100 T
b110000011001100011 0
b110000011001100011 P
b110000011001100011 S
b11100 +
b11100 Z
b11100 `
b100100 2
b100100 G
b100100 Y
b11100 ,
b11100 E
b11100 X
b11000 *
b11000 F
b11000 I
b11000 R
b11000 a
1!
#70
0!
#75
19
1:
b1 4
b1 ;
b1 V
b0 7
b0 <
b0 C
b0 '
b0 =
b0 g
15
1(
03
b0 6
b0 B
b0 K
b101 e
b1 c
b101 b
b10011 J
b1 1
b1 H
b1 Q
b1 T
b100101000001010010011 0
b100101000001010010011 P
b100101000001010010011 S
b100000 +
b100000 Z
b100000 `
b11101 2
b11101 G
b11101 Y
b100000 ,
b100000 E
b100000 X
b11100 *
b11100 F
b11100 I
b11100 R
b11100 a
1!
#80
0!
#85
1#
1$
b1010 7
b1010 <
b1010 C
b1 6
b1 B
b1 K
13
05
0(
b0 4
b0 ;
b0 V
09
0:
b0 %
b0 ^
b0 d
1A
b10101 e
b0 c
b0 b
b1100011 J
b11111111111111111111111111110100 1
b11111111111111111111111111110100 H
b11111111111111111111111111110100 Q
b11111111111111111111111111110100 T
b0 8
b0 >
b0 M
b0 \
b11111110000000000000101011100011 0
b11111110000000000000101011100011 P
b11111110000000000000101011100011 S
b10100 +
b10100 Z
b10100 `
b0 '
b0 =
b0 g
b10100 2
b10100 G
b10100 Y
b100100 ,
b100100 E
b100100 X
b100000 *
b100000 F
b100000 I
b100000 R
b100000 a
1!
#90
0!
#95
0$
b1 %
b1 ^
b1 d
b1 8
b1 >
b1 M
b1 \
19
1:
0#
b111 4
b111 ;
b111 V
b1001 7
b1001 <
b1001 C
b1 '
b1 =
b1 g
15
1(
03
b0 6
b0 B
b0 K
b10 @
0A
b110 e
b111 c
b101 b
b10011 J
b111 1
b111 H
b111 Q
b111 T
b11100101010001100010011 0
b11100101010001100010011 P
b11100101010001100010011 S
b11000 +
b11000 Z
b11000 `
b11011 2
b11011 G
b11011 Y
b11000 ,
b11000 E
b11000 X
b10100 *
b10100 F
b10100 I
b10100 R
b10100 a
1!
#100
0!
#105
09
0:
b1 %
b1 ^
b1 d
b1 8
b1 >
b1 M
b1 \
b1010 7
b1010 <
b1010 C
b1 6
b1 B
b1 K
13
05
0(
b0 4
b0 ;
b0 V
b0 @
b1100 e
b0 c
b110 b
b1100011 J
b1100 1
b1100 H
b1100 Q
b1100 T
b110000011001100011 0
b110000011001100011 P
b110000011001100011 S
b11100 +
b11100 Z
b11100 `
b100100 2
b100100 G
b100100 Y
b11100 ,
b11100 E
b11100 X
b11000 *
b11000 F
b11000 I
b11000 R
b11000 a
1!
#110
0!
#115
b10 %
b10 ^
b10 d
b10 8
b10 >
b10 M
b10 \
b1 4
b1 ;
b1 V
b0 7
b0 <
b0 C
15
1(
03
b0 6
b0 B
b0 K
b101 e
b1 c
b101 b
b10011 J
b1 1
b1 H
b1 Q
b1 T
b100101000001010010011 0
b100101000001010010011 P
b100101000001010010011 S
b100000 +
b100000 Z
b100000 `
b11101 2
b11101 G
b11101 Y
b100000 ,
b100000 E
b100000 X
b11100 *
b11100 F
b11100 I
b11100 R
b11100 a
1!
#120
0!
#125
1#
1$
0:
b1010 7
b1010 <
b1010 C
b1 6
b1 B
b1 K
13
05
0(
b0 4
b0 ;
b0 V
b0 %
b0 ^
b0 d
1A
b10101 e
b0 c
b0 b
b1100011 J
b11111111111111111111111111110100 1
b11111111111111111111111111110100 H
b11111111111111111111111111110100 Q
b11111111111111111111111111110100 T
b0 8
b0 >
b0 M
b0 \
b11111110000000000000101011100011 0
b11111110000000000000101011100011 P
b11111110000000000000101011100011 S
b10100 +
b10100 Z
b10100 `
b0 '
b0 =
b0 g
b10100 2
b10100 G
b10100 Y
b100100 ,
b100100 E
b100100 X
b100000 *
b100000 F
b100000 I
b100000 R
b100000 a
1!
#130
0!
#135
0$
b1 %
b1 ^
b1 d
b1 8
b1 >
b1 M
b1 \
19
1:
0#
b111 4
b111 ;
b111 V
b1001 7
b1001 <
b1001 C
b10 '
b10 =
b10 g
15
1(
03
b0 6
b0 B
b0 K
b10 @
0A
b110 e
b111 c
b101 b
b10011 J
b111 1
b111 H
b111 Q
b111 T
b11100101010001100010011 0
b11100101010001100010011 P
b11100101010001100010011 S
b11000 +
b11000 Z
b11000 `
b11011 2
b11011 G
b11011 Y
b11000 ,
b11000 E
b11000 X
b10100 *
b10100 F
b10100 I
b10100 R
b10100 a
1!
#140
0!
#145
09
0:
b1 %
b1 ^
b1 d
b1 8
b1 >
b1 M
b1 \
b1010 7
b1010 <
b1010 C
b1 '
b1 =
b1 g
b1 6
b1 B
b1 K
13
05
0(
b0 4
b0 ;
b0 V
b0 @
b1100 e
b0 c
b110 b
b1100011 J
b1100 1
b1100 H
b1100 Q
b1100 T
b110000011001100011 0
b110000011001100011 P
b110000011001100011 S
b11100 +
b11100 Z
b11100 `
b100100 2
b100100 G
b100100 Y
b11100 ,
b11100 E
b11100 X
b11000 *
b11000 F
b11000 I
b11000 R
b11000 a
1!
#150
0!
#155
b11 %
b11 ^
b11 d
b11 8
b11 >
b11 M
b11 \
b1 4
b1 ;
b1 V
b0 7
b0 <
b0 C
b10 '
b10 =
b10 g
15
1(
03
b0 6
b0 B
b0 K
b101 e
b1 c
b101 b
b10011 J
b1 1
b1 H
b1 Q
b1 T
b100101000001010010011 0
b100101000001010010011 P
b100101000001010010011 S
b100000 +
b100000 Z
b100000 `
b11101 2
b11101 G
b11101 Y
b100000 ,
b100000 E
b100000 X
b11100 *
b11100 F
b11100 I
b11100 R
b11100 a
1!
#160
0!
#165
1#
1$
0:
b1010 7
b1010 <
b1010 C
b1 6
b1 B
b1 K
13
05
0(
b0 4
b0 ;
b0 V
b0 %
b0 ^
b0 d
1A
b10101 e
b0 c
b0 b
b1100011 J
b11111111111111111111111111110100 1
b11111111111111111111111111110100 H
b11111111111111111111111111110100 Q
b11111111111111111111111111110100 T
b0 8
b0 >
b0 M
b0 \
b11111110000000000000101011100011 0
b11111110000000000000101011100011 P
b11111110000000000000101011100011 S
b10100 +
b10100 Z
b10100 `
b0 '
b0 =
b0 g
b10100 2
b10100 G
b10100 Y
b100100 ,
b100100 E
b100100 X
b100000 *
b100000 F
b100000 I
b100000 R
b100000 a
1!
#170
0!
#175
0$
b1 %
b1 ^
b1 d
b1 8
b1 >
b1 M
b1 \
19
1:
0#
b111 4
b111 ;
b111 V
b1001 7
b1001 <
b1001 C
b11 '
b11 =
b11 g
15
1(
03
b0 6
b0 B
b0 K
b10 @
0A
b110 e
b111 c
b101 b
b10011 J
b111 1
b111 H
b111 Q
b111 T
b11100101010001100010011 0
b11100101010001100010011 P
b11100101010001100010011 S
b11000 +
b11000 Z
b11000 `
b11011 2
b11011 G
b11011 Y
b11000 ,
b11000 E
b11000 X
b10100 *
b10100 F
b10100 I
b10100 R
b10100 a
1!
#180
0!
#185
09
0:
b1 %
b1 ^
b1 d
b1 8
b1 >
b1 M
b1 \
b1010 7
b1010 <
b1010 C
b1 '
b1 =
b1 g
b1 6
b1 B
b1 K
13
05
0(
b0 4
b0 ;
b0 V
b0 @
b1100 e
b0 c
b110 b
b1100011 J
b1100 1
b1100 H
b1100 Q
b1100 T
b110000011001100011 0
b110000011001100011 P
b110000011001100011 S
b11100 +
b11100 Z
b11100 `
b100100 2
b100100 G
b100100 Y
b11100 ,
b11100 E
b11100 X
b11000 *
b11000 F
b11000 I
b11000 R
b11000 a
1!
#190
0!
#195
b100 %
b100 ^
b100 d
b100 8
b100 >
b100 M
b100 \
b1 4
b1 ;
b1 V
b0 7
b0 <
b0 C
b11 '
b11 =
b11 g
15
1(
03
b0 6
b0 B
b0 K
b101 e
b1 c
b101 b
b10011 J
b1 1
b1 H
b1 Q
b1 T
b100101000001010010011 0
b100101000001010010011 P
b100101000001010010011 S
b100000 +
b100000 Z
b100000 `
b11101 2
b11101 G
b11101 Y
b100000 ,
b100000 E
b100000 X
b11100 *
b11100 F
b11100 I
b11100 R
b11100 a
1!
#200
0!
#205
1#
1$
0:
b1010 7
b1010 <
b1010 C
b1 6
b1 B
b1 K
13
05
0(
b0 4
b0 ;
b0 V
b0 %
b0 ^
b0 d
1A
b10101 e
b0 c
b0 b
b1100011 J
b11111111111111111111111111110100 1
b11111111111111111111111111110100 H
b11111111111111111111111111110100 Q
b11111111111111111111111111110100 T
b0 8
b0 >
b0 M
b0 \
b11111110000000000000101011100011 0
b11111110000000000000101011100011 P
b11111110000000000000101011100011 S
b10100 +
b10100 Z
b10100 `
b0 '
b0 =
b0 g
b10100 2
b10100 G
b10100 Y
b100100 ,
b100100 E
b100100 X
b100000 *
b100000 F
b100000 I
b100000 R
b100000 a
1!
#210
0!
#215
0$
b1 %
b1 ^
b1 d
b1 8
b1 >
b1 M
b1 \
19
1:
0#
b111 4
b111 ;
b111 V
b1001 7
b1001 <
b1001 C
b100 '
b100 =
b100 g
15
1(
03
b0 6
b0 B
b0 K
b10 @
0A
b110 e
b111 c
b101 b
b10011 J
b111 1
b111 H
b111 Q
b111 T
b11100101010001100010011 0
b11100101010001100010011 P
b11100101010001100010011 S
b11000 +
b11000 Z
b11000 `
b11011 2
b11011 G
b11011 Y
b11000 ,
b11000 E
b11000 X
b10100 *
b10100 F
b10100 I
b10100 R
b10100 a
1!
#220
0!
#225
09
0:
b1 %
b1 ^
b1 d
b1 8
b1 >
b1 M
b1 \
b1010 7
b1010 <
b1010 C
b1 '
b1 =
b1 g
b1 6
b1 B
b1 K
13
05
0(
b0 4
b0 ;
b0 V
b0 @
b1100 e
b0 c
b110 b
b1100011 J
b1100 1
b1100 H
b1100 Q
b1100 T
b110000011001100011 0
b110000011001100011 P
b110000011001100011 S
b11100 +
b11100 Z
b11100 `
b100100 2
b100100 G
b100100 Y
b11100 ,
b11100 E
b11100 X
b11000 *
b11000 F
b11000 I
b11000 R
b11000 a
1!
#230
0!
#235
b101 %
b101 ^
b101 d
b101 8
b101 >
b101 M
b101 \
b1 4
b1 ;
b1 V
b0 7
b0 <
b0 C
b100 '
b100 =
b100 g
15
1(
03
b0 6
b0 B
b0 K
b101 e
b1 c
b101 b
b10011 J
b1 1
b1 H
b1 Q
b1 T
b100101000001010010011 0
b100101000001010010011 P
b100101000001010010011 S
b100000 +
b100000 Z
b100000 `
b11101 2
b11101 G
b11101 Y
b100000 ,
b100000 E
b100000 X
b11100 *
b11100 F
b11100 I
b11100 R
b11100 a
1!
#240
0!
#245
1#
1$
0:
b1010 7
b1010 <
b1010 C
b1 6
b1 B
b1 K
13
05
0(
b0 4
b0 ;
b0 V
b0 %
b0 ^
b0 d
1A
b10101 e
b0 c
b0 b
b1100011 J
b11111111111111111111111111110100 1
b11111111111111111111111111110100 H
b11111111111111111111111111110100 Q
b11111111111111111111111111110100 T
b0 8
b0 >
b0 M
b0 \
b11111110000000000000101011100011 0
b11111110000000000000101011100011 P
b11111110000000000000101011100011 S
b10100 +
b10100 Z
b10100 `
b0 '
b0 =
b0 g
b10100 2
b10100 G
b10100 Y
b100100 ,
b100100 E
b100100 X
b100000 *
b100000 F
b100000 I
b100000 R
b100000 a
1!
#250
0!
#255
0$
b1 %
b1 ^
b1 d
b1 8
b1 >
b1 M
b1 \
19
1:
0#
b111 4
b111 ;
b111 V
b1001 7
b1001 <
b1001 C
b101 '
b101 =
b101 g
15
1(
03
b0 6
b0 B
b0 K
b10 @
0A
b110 e
b111 c
b101 b
b10011 J
b111 1
b111 H
b111 Q
b111 T
b11100101010001100010011 0
b11100101010001100010011 P
b11100101010001100010011 S
b11000 +
b11000 Z
b11000 `
b11011 2
b11011 G
b11011 Y
b11000 ,
b11000 E
b11000 X
b10100 *
b10100 F
b10100 I
b10100 R
b10100 a
1!
#260
0!
#265
09
0:
b1 %
b1 ^
b1 d
b1 8
b1 >
b1 M
b1 \
b1010 7
b1010 <
b1010 C
b1 '
b1 =
b1 g
b1 6
b1 B
b1 K
13
05
0(
b0 4
b0 ;
b0 V
b0 @
b1100 e
b0 c
b110 b
b1100011 J
b1100 1
b1100 H
b1100 Q
b1100 T
b110000011001100011 0
b110000011001100011 P
b110000011001100011 S
b11100 +
b11100 Z
b11100 `
b100100 2
b100100 G
b100100 Y
b11100 ,
b11100 E
b11100 X
b11000 *
b11000 F
b11000 I
b11000 R
b11000 a
1!
#270
0!
#275
b110 %
b110 ^
b110 d
b110 8
b110 >
b110 M
b110 \
b1 4
b1 ;
b1 V
b0 7
b0 <
b0 C
b101 '
b101 =
b101 g
15
1(
03
b0 6
b0 B
b0 K
b101 e
b1 c
b101 b
b10011 J
b1 1
b1 H
b1 Q
b1 T
b100101000001010010011 0
b100101000001010010011 P
b100101000001010010011 S
b100000 +
b100000 Z
b100000 `
b11101 2
b11101 G
b11101 Y
b100000 ,
b100000 E
b100000 X
b11100 *
b11100 F
b11100 I
b11100 R
b11100 a
1!
#280
0!
#285
1#
1$
0:
b1010 7
b1010 <
b1010 C
b1 6
b1 B
b1 K
13
05
0(
b0 4
b0 ;
b0 V
b0 %
b0 ^
b0 d
1A
b10101 e
b0 c
b0 b
b1100011 J
b11111111111111111111111111110100 1
b11111111111111111111111111110100 H
b11111111111111111111111111110100 Q
b11111111111111111111111111110100 T
b0 8
b0 >
b0 M
b0 \
b11111110000000000000101011100011 0
b11111110000000000000101011100011 P
b11111110000000000000101011100011 S
b10100 +
b10100 Z
b10100 `
b0 '
b0 =
b0 g
b10100 2
b10100 G
b10100 Y
b100100 ,
b100100 E
b100100 X
b100000 *
b100000 F
b100000 I
b100000 R
b100000 a
1!
#290
0!
#295
0$
b1 %
b1 ^
b1 d
b1 8
b1 >
b1 M
b1 \
19
1:
0#
b111 4
b111 ;
b111 V
b1001 7
b1001 <
b1001 C
b110 '
b110 =
b110 g
15
1(
03
b0 6
b0 B
b0 K
b10 @
0A
b110 e
b111 c
b101 b
b10011 J
b111 1
b111 H
b111 Q
b111 T
b11100101010001100010011 0
b11100101010001100010011 P
b11100101010001100010011 S
b11000 +
b11000 Z
b11000 `
b11011 2
b11011 G
b11011 Y
b11000 ,
b11000 E
b11000 X
b10100 *
b10100 F
b10100 I
b10100 R
b10100 a
1!
#300
0!
#305
09
0:
b1 %
b1 ^
b1 d
b1 8
b1 >
b1 M
b1 \
b1010 7
b1010 <
b1010 C
b1 '
b1 =
b1 g
b1 6
b1 B
b1 K
13
05
0(
b0 4
b0 ;
b0 V
b0 @
b1100 e
b0 c
b110 b
b1100011 J
b1100 1
b1100 H
b1100 Q
b1100 T
b110000011001100011 0
b110000011001100011 P
b110000011001100011 S
b11100 +
b11100 Z
b11100 `
b100100 2
b100100 G
b100100 Y
b11100 ,
b11100 E
b11100 X
b11000 *
b11000 F
b11000 I
b11000 R
b11000 a
1!
#310
0!
#315
b111 %
b111 ^
b111 d
b111 8
b111 >
b111 M
b111 \
b1 4
b1 ;
b1 V
b0 7
b0 <
b0 C
b110 '
b110 =
b110 g
15
1(
03
b0 6
b0 B
b0 K
b101 e
b1 c
b101 b
b10011 J
b1 1
b1 H
b1 Q
b1 T
b100101000001010010011 0
b100101000001010010011 P
b100101000001010010011 S
b100000 +
b100000 Z
b100000 `
b11101 2
b11101 G
b11101 Y
b100000 ,
b100000 E
b100000 X
b11100 *
b11100 F
b11100 I
b11100 R
b11100 a
1!
#320
0!
#325
1#
1$
0:
b1010 7
b1010 <
b1010 C
b1 6
b1 B
b1 K
13
05
0(
b0 4
b0 ;
b0 V
b0 %
b0 ^
b0 d
1A
b10101 e
b0 c
b0 b
b1100011 J
b11111111111111111111111111110100 1
b11111111111111111111111111110100 H
b11111111111111111111111111110100 Q
b11111111111111111111111111110100 T
b0 8
b0 >
b0 M
b0 \
b11111110000000000000101011100011 0
b11111110000000000000101011100011 P
b11111110000000000000101011100011 S
b10100 +
b10100 Z
b10100 `
b0 '
b0 =
b0 g
b10100 2
b10100 G
b10100 Y
b100100 ,
b100100 E
b100100 X
b100000 *
b100000 F
b100000 I
b100000 R
b100000 a
1!
#330
0!
#335
0#
b111 4
b111 ;
b111 V
b1001 7
b1001 <
b1001 C
b111 '
b111 =
b111 g
15
1(
03
b0 6
b0 B
b0 K
b10 @
0A
b110 e
b111 c
b101 b
b10011 J
b111 1
b111 H
b111 Q
b111 T
b11100101010001100010011 0
b11100101010001100010011 P
b11100101010001100010011 S
b11000 +
b11000 Z
b11000 `
b11011 2
b11011 G
b11011 Y
b11000 ,
b11000 E
b11000 X
b10100 *
b10100 F
b10100 I
b10100 R
b10100 a
1!
#340
0!
#345
1$
1#
09
0:
b0 %
b0 ^
b0 d
b0 8
b0 >
b0 M
b0 \
b1010 7
b1010 <
b1010 C
b0 '
b0 =
b0 g
b1 6
b1 B
b1 K
13
05
0(
b0 4
b0 ;
b0 V
b0 @
b1100 e
b0 c
b110 b
b1100011 J
b1100 1
b1100 H
b1100 Q
b1100 T
b110000011001100011 0
b110000011001100011 P
b110000011001100011 S
b100100 +
b100100 Z
b100100 `
b100100 2
b100100 G
b100100 Y
b11100 ,
b11100 E
b11100 X
b11000 *
b11000 F
b11000 I
b11000 R
b11000 a
1!
#350
0!
#355
19
1:
0#
b1010 4
b1010 ;
b1010 V
b1111 7
b1111 <
b1111 C
15
1(
03
b0 6
b0 B
b0 K
b110 @
b110 e
b1010 c
b10011 J
b1010 1
b1010 H
b1010 Q
b1010 T
b101000110110001100010011 0
b101000110110001100010011 P
b101000110110001100010011 S
b101000 +
b101000 Z
b101000 `
b101110 2
b101110 G
b101110 Y
b101000 ,
b101000 E
b101000 X
b100100 *
b100100 F
b100100 I
b100100 R
b100100 a
1!
#360
0!
#365
b10100011 %
b10100011 ^
b10100011 d
b10100011 )
b10100011 O
b10100011 ]
1$
09
0:
b0 8
b0 >
b0 M
b0 \
b1001 7
b1001 <
b1001 C
b1111100 '
b1111100 =
b1111100 g
1.
1/
15
1(
b0 4
b0 ;
b0 V
b10 @
b1000 e
b0 c
b10 b
b11 J
b0 1
b0 H
b0 Q
b0 T
b10010010000000011 0
b10010010000000011 P
b10010010000000011 S
b101100 +
b101100 Z
b101100 `
b101000 2
b101000 G
b101000 Y
b101100 ,
b101100 E
b101100 X
b101000 *
b101000 F
b101000 I
b101000 R
b101000 a
1!
#370
0!
#375
0$
b0 )
b0 O
b0 ]
b10000000 %
b10000000 ^
b10000000 d
b10000000 8
b10000000 >
b10000000 M
b10000000 \
b0 7
b0 <
b0 C
0/
0.
15
1(
b100 4
b100 ;
b100 V
b0 @
b10 e
b100 c
b10011 J
b100 1
b100 H
b100 Q
b100 T
b10000010000000100010011 0
b10000010000000100010011 P
b10000010000000100010011 S
b110000 +
b110000 Z
b110000 `
b110000 2
b110000 G
b110000 Y
b110000 ,
b110000 E
b110000 X
b101100 *
b101100 F
b101100 I
b101100 R
b101100 a
1!
#380
0!
#385
1$
05
0(
b0 4
b0 ;
b0 V
b0 %
b0 ^
b0 d
b0 e
b0 c
b0 b
b0 J
b0 1
b0 H
b0 Q
b0 T
b0 8
b0 >
b0 M
b0 \
b0 0
b0 P
b0 S
b110100 +
b110100 Z
b110100 `
b0 '
b0 =
b0 g
b110000 2
b110000 G
b110000 Y
b110100 ,
b110100 E
b110100 X
b110000 *
b110000 F
b110000 I
b110000 R
b110000 a
1!
#390
0!
#395
x9
x:
bx 4
bx ;
bx V
x#
b1111 7
b1111 <
b1111 C
bx &
bx N
bx U
bx f
bx '
bx =
bx g
bx @
xA
bx e
bx c
bx b
bx J
bx 0
bx P
bx S
b11xx00 +
b11xx00 Z
b11xx00 `
b110100 2
b110100 G
b110100 Y
b111000 ,
b111000 E
b111000 X
b110100 *
b110100 F
b110100 I
b110100 R
b110100 a
1!
#400
0!
#405
bx +
bx Z
bx `
bx 2
bx G
bx Y
bx ,
bx E
bx X
b11xx00 *
b11xx00 F
b11xx00 I
b11xx00 R
b11xx00 a
1!
#410
0!
#415
bx *
bx F
bx I
bx R
bx a
1!
