task2/AXI_LFSR/top_module_tb.vcd
$date
	Thu Apr 03 14:02:46 2025
$end
$version
	Icarus Verilog
$end
$timescale
	1ps
$end
$scope module top_module_tb $end
$var wire 1 ! s_axi_wready $end
$var wire 1 " s_axi_rvalid $end
$var wire 2 # s_axi_rresp [1:0] $end
$var wire 32 $ s_axi_rdata [31:0] $end
$var wire 1 % s_axi_bvalid $end
$var wire 2 & s_axi_bresp [1:0] $end
$var wire 1 ' s_axi_awready $end
$var wire 1 ( s_axi_arready $end
$var wire 1 ) m_axis_tvalid $end
$var wire 32 * m_axis_tdata [31:0] $end
$var parameter 32 + CLK_PERIOD $end
$var parameter 32 , C_AXIL_ADDR_WIDTH $end
$var parameter 32 - C_AXIL_DATA_WIDTH $end
$var parameter 32 . TIMEOUT $end
$var reg 1 / aclk $end
$var reg 1 0 aresetn $end
$var reg 1 1 m_axis_tready $end
$var reg 4 2 s_axi_araddr [3:0] $end
$var reg 1 3 s_axi_arvalid $end
$var reg 4 4 s_axi_awaddr [3:0] $end
$var reg 1 5 s_axi_awvalid $end
$var reg 1 6 s_axi_bready $end
$var reg 1 7 s_axi_rready $end
$var reg 32 8 s_axi_wdata [31:0] $end
$var reg 1 9 s_axi_wvalid $end
$var reg 32 : temp [31:0] $end
$var integer 32 ; capture_idx [31:0] $end
$var integer 32 < timeout_counter [31:0] $end
$scope function decode_bin $end
$var reg 12 = addr [11:0] $end
$upscope $end
$scope module u_top $end
$var wire 1 / aclk $end
$var wire 1 0 aresetn $end
$var wire 1 1 m_axis_tready $end
$var wire 4 > s_axi_araddr [3:0] $end
$var wire 1 3 s_axi_arvalid $end
$var wire 4 ? s_axi_awaddr [3:0] $end
$var wire 1 5 s_axi_awvalid $end
$var wire 1 6 s_axi_bready $end
$var wire 1 7 s_axi_rready $end
$var wire 32 @ s_axi_wdata [31:0] $end
$var wire 1 9 s_axi_wvalid $end
$var wire 1 ! s_axi_wready $end
$var wire 1 " s_axi_rvalid $end
$var wire 2 A s_axi_rresp [1:0] $end
$var wire 32 B s_axi_rdata [31:0] $end
$var wire 1 % s_axi_bvalid $end
$var wire 2 C s_axi_bresp [1:0] $end
$var wire 1 ' s_axi_awready $end
$var wire 1 ( s_axi_arready $end
$var wire 1 ) m_axis_tvalid $end
$var wire 32 D m_axis_tdata [31:0] $end
$var wire 1 E lfsr_stream_valid $end
$var wire 1 F lfsr_stream_ready $end
$var wire 32 G lfsr_stream_data [31:0] $end
$var wire 1 H hist_stream_valid $end
$var wire 1 I hist_stream_ready $end
$var wire 32 J hist_stream_data [31:0] $end
$var wire 1 K fifo_stream_valid $end
$var wire 1 L fifo_stream_ready $end
$var wire 32 M fifo_stream_data [31:0] $end
$scope module u_axil $end
$var wire 1 / aclk $end
$var wire 1 0 aresetn $end
$var wire 4 N s_axi_araddr [3:0] $end
$var wire 1 3 s_axi_arvalid $end
$var wire 4 O s_axi_awaddr [3:0] $end
$var wire 1 5 s_axi_awvalid $end
$var wire 1 6 s_axi_bready $end
$var wire 1 7 s_axi_rready $end
$var wire 32 P s_axi_wdata [31:0] $end
$var wire 1 9 s_axi_wvalid $end
$var wire 1 F m_axis_tready $end
$var wire 1 Q feedback $end
$var parameter 32 R C_AXIL_ADDR_WIDTH $end
$var parameter 32 S C_AXIL_DATA_WIDTH $end
$var reg 8 T lfsr_reg [7:0] $end
$var reg 1 U lfsr_running $end
$var reg 32 V m_axis_tdata [31:0] $end
$var reg 1 E m_axis_tvalid $end
$var reg 1 ( s_axi_arready $end
$var reg 1 ' s_axi_awready $end
$var reg 2 W s_axi_bresp [1:0] $end
$var reg 1 % s_axi_bvalid $end
$var reg 32 X s_axi_rdata [31:0] $end
$var reg 2 Y s_axi_rresp [1:0] $end
$var reg 1 " s_axi_rvalid $end
$var reg 1 ! s_axi_wready $end
$var reg 8 Z seed_reg [7:0] $end
$var reg 1 [ start_reg $end
$var reg 1 \ stop_reg $end
$var reg 8 ] taps_reg [7:0] $end
$upscope $end
$scope module u_fifo $end
$var wire 1 / aclk $end
$var wire 1 0 aresetn $end
$var wire 1 ^ read_enable $end
$var wire 32 _ s_axis_tdata [31:0] $end
$var wire 1 E s_axis_tvalid $end
$var wire 1 ` write_enable $end
$var wire 1 L m_axis_tready $end
$var wire 1 a fifo_full $end
$var wire 1 b fifo_empty $end
$var parameter 32 c DATA_WIDTH $end
$var parameter 32 d DEPTH $end
$var parameter 32 e PTR_WIDTH $end
$var reg 5 f count [4:0] $end
$var reg 32 g m_axis_tdata [31:0] $end
$var reg 1 K m_axis_tvalid $end
$var reg 5 h read_ptr [4:0] $end
$var reg 1 F s_axis_tready $end
$var reg 5 i write_ptr [4:0] $end
$upscope $end
$scope module u_fifo_logger $end
$var wire 1 / aclk $end
$var wire 1 0 aresetn $end
$var wire 32 j fifo_data [31:0] $end
$var wire 1 K fifo_valid $end
$var integer 32 k file [31:0] $end
$upscope $end
$scope module u_hist $end
$var wire 1 / aclk $end
$var wire 1 0 aresetn $end
$var wire 32 l s_axis_tdata [31:0] $end
$var wire 1 K s_axis_tvalid $end
$var wire 1 I m_axis_tready $end
$var reg 3 m bin_index [2:0] $end
$var reg 8 n count [7:0] $end
$var reg 32 o m_axis_tdata [31:0] $end
$var reg 1 H m_axis_tvalid $end
$var reg 1 L s_axis_tready $end
$var reg 12 p storage_addr [11:0] $end
$var reg 8 q value [7:0] $end
$var integer 32 r i [31:0] $end
$scope function get_bin_index $end
$var reg 8 s value [7:0] $end
$upscope $end
$scope function get_storage_address $end
$var reg 3 t bin [2:0] $end
$upscope $end
$upscope $end
$scope module u_ram $end
$var wire 1 / aclk $end
$var wire 1 0 aresetn $end
$var wire 1 1 m_axis_tready $end
$var wire 32 u s_axis_tdata [31:0] $end
$var wire 1 H s_axis_tvalid $end
$var wire 8 v value [7:0] $end
$var wire 4 w header [3:0] $end
$var wire 8 x count [7:0] $end
$var wire 3 y bin_index [2:0] $end
$var wire 12 z bin_addr [11:0] $end
$var reg 8 { bin0_counter [7:0] $end
$var reg 8 | bin1_counter [7:0] $end
$var reg 8 } bin2_counter [7:0] $end
$var reg 8 ~ bin3_counter [7:0] $end
$var reg 8 !" bin4_counter [7:0] $end
$var reg 8 "" bin5_counter [7:0] $end
$var reg 8 #" bin6_counter [7:0] $end
$var reg 8 $" bin7_counter [7:0] $end
$var reg 8 %" count_in [7:0] $end
$var reg 8 &" count_out [7:0] $end
$var reg 12 '" current_bin_addr [11:0] $end
$var reg 8 (" current_value [7:0] $end
$var reg 1 )" is_duplicate $end
$var reg 32 *" m_axis_tdata [31:0] $end
$var reg 1 ) m_axis_tvalid $end
$var reg 4 +" output_header [3:0] $end
$var reg 1 I s_axis_tready $end
$var reg 12 ," write_addr [11:0] $end
$var integer 32 -" i [31:0] $end
$scope function get_bin_counter $end
$var reg 3 ." idx [2:0] $end
$upscope $end
$scope function get_bin_index $end
$var reg 12 /" addr [11:0] $end
$upscope $end
$upscope $end
$upscope $end
$scope task axil_read $end
$var reg 4 0" addr [3:0] $end
$var reg 32 1" data [31:0] $end
$upscope $end
$scope task axil_write $end
$var reg 4 2" addr [3:0] $end
$var reg 32 3" data [31:0] $end
$upscope $end
$upscope $end
$enddefinitions $end
$comment Show the parameter values. $end
$dumpall
b100 e
b10000 d
b100000 c
b100000 S
b100 R
b10011100010000 .
b100000 -
b100 ,
b1010 +
$end
#0
$dumpvars
bx 3"
bx 2"
bx 1"
bx 0"
bx /"
bx ."
bx -"
bx ,"
bx +"
bx *"
x)"
bx ("
bx '"
bx &"
bx %"
bx $"
bx #"
bx ""
bx !"
bx ~
bx }
bx |
bx {
bx z
bx y
bx x
bx w
bx v
bx u
bx t
bx s
bx r
bx q
bx p
bx o
bx n
bx m
bx l
b10000000000000000000000000000011 k
bx j
bx i
bx h
bx g
bx f
xb
xa
x`
bx _
x^
bx ]
x\
x[
bx Z
bx Y
bx X
bx W
bx V
xU
bx T
xQ
bx P
bx O
bx N
bx M
xL
xK
bx J
xI
xH
bx G
xF
xE
bx D
bx C
bx B
bx A
bx @
bx ?
bx >
bx =
bx <
b0 ;
bx :
09
bx 8
07
06
05
bx 4
03
bx 2
01
00
0/
bx *
x)
x(
x'
bx &
x%
bx $
bx #
x"
x!
$end
#5000
0Q
0`
0^
b10110100 ]
b1 Z
0\
0[
b0 &
b0 C
b0 W
0%
0!
0'
b0 $
b0 B
b0 X
b0 #
b0 A
b0 Y
0"
0(
0U
b1 T
0E
b0 G
b0 V
b0 _
b0 i
b0 h
1b
0a
b0 f
b0 M
b0 g
b0 j
b0 l
0K
1F
1L
0H
b0 '"
b0 ("
b0 &"
b0 %"
b0 +"
0)"
b0 $"
b0 #"
b0 ""
b0 !"
b0 ~
b0 }
b0 |
b0 {
0)
1I
b1000 r
b100000000 -"
1/
#10000
0/
#15000
b100000000 -"
b1000 r
1/
#20000
0/
#25000
b1000 r
b100000000 -"
1/
#30000
0/
#35000
b100000000 -"
b1000 r
1/
#40000
0/
#45000
10
1/
#50000
0/
#55000
1/
#60000
0/
#65000
b0 <
17
13
b0 2
b0 >
b0 N
b0 0"
1/
#70000
0/
#75000
1(
b1 <
1/
#80000
0/
#85000
1"
0(
b10 <
1/
#90000
0/
#95000
0"
b0 1"
b0 <
03
1/
#100000
0/
#105000
13
b100 2
b100 >
b100 N
b100 0"
b0 :
17
1/
#110000
0/
#115000
1(
b1 <
1/
#120000
0/
#125000
1"
0(
b10 <
1/
#130000
0/
#135000
0"
b0 <
03
1/
#140000
0/
#145000
13
b1000 2
b1000 >
b1000 N
b1000 0"
17
1/
#150000
0/
#155000
1(
b1 <
1/
#160000
0/
#165000
1"
b1 $
b1 B
b1 X
0(
b10 <
1/
#170000
0/
#175000
0"
b1 1"
b0 <
03
1/
#180000
0/
#185000
13
b1100 2
b1100 >
b1100 N
b1100 0"
b1 :
17
1/
#190000
0/
#195000
1(
b1 <
1/
#200000
0/
#205000
1"
b10110100 $
b10110100 B
b10110100 X
0(
b10 <
1/
#210000
0/
#215000
0"
b10110100 1"
b0 <
03
1/
#220000
0/
#225000
16
19
b1000010 8
b1000010 @
b1000010 P
15
b1000 4
b1000 ?
b1000 O
b1000010 3"
b1000 2"
b10110100 :
07
1/
#230000
0/
#235000
1!
1'
b1 <
1/
#240000
0/
#245000
1%
b1000010 Z
0!
0'
b10 <
1/
#250000
0/
#255000
0%
b0 <
09
05
1/
#260000
0/
#265000
19
b10110100 8
b10110100 @
b10110100 P
15
b1100 4
b1100 ?
b1100 O
b10110100 3"
b1100 2"
16
1/
#270000
0/
#275000
1!
1'
b1 <
1/
#280000
0/
#285000
1%
0!
0'
b10 <
1/
#290000
0/
#295000
0%
b0 <
09
05
1/
#300000
0/
#305000
17
13
b1000 2
b1000 >
b1000 N
b1000 0"
06
1/
#310000
0/
#315000
1(
b1 <
1/
#320000
0/
#325000
1"
b1000010 $
b1000010 B
b1000010 X
0(
b10 <
1/
#330000
0/
#335000
0"
b1000010 1"
b0 <
03
1/
#340000
0/
#345000
13
b1100 2
b1100 >
b1100 N
b1100 0"
b1000010 :
17
1/
#350000
0/
#355000
1(
b1 <
1/
#360000
0/
#365000
1"
b10110100 $
b10110100 B
b10110100 X
0(
b10 <
1/
#370000
0/
#375000
0"
b10110100 1"
b0 <
03
1/
#380000
0/
#385000
16
19
b1 8
b1 @
b1 P
15
b0 4
b0 ?
b0 O
b1 3"
b0 2"
b10110100 :
07
1/
#390000
0/
#395000
1!
1'
b1 <
1/
#400000
0/
#405000
1%
1[
0!
0'
b10 <
1/
#410000
0/
#415000
0[
1U
b1000010 T
0%
b0 <
09
05
1/
#420000
0/
#425000
1`
b10000100 T
1E
b1000010 G
b1000010 V
b1000010 _
06
1/
#430000
0/
#435000
1^
b1000010 M
b1000010 g
b1000010 j
b1000010 l
1K
0b
b1 f
b1 i
b10000100 G
b10000100 V
b10000100 _
b1000 T
1/
#440000
0/
#445000
1Q
0^
b0 w
b10000 T
b1000 G
b1000 V
b1000 _
b10 i
b1 h
0L
1H
b0xxxxxxxxxxxxxxxxxxxxxxxxxxxx J
b0xxxxxxxxxxxxxxxxxxxxxxxxxxxx o
b0xxxxxxxxxxxxxxxxxxxxxxxxxxxx u
b1 n
b1100000 p
b10 m
b1000010 q
17
13
b0 2
b0 >
b0 N
b0 0"
b10 t
b1000010 s
1/
#450000
0/
#455000
1^
1)
b100000000xxxxxxxxxxxxxxxxxxxx *
b100000000xxxxxxxxxxxxxxxxxxxx D
b100000000xxxxxxxxxxxxxxxxxxxx *"
b1 +"
x)"
bx %"
bx '"
bx ("
1L
0H
b10 f
b11 i
b10000 G
b10000 V
b10000 _
b100001 T
1(
b1 <
1/
#460000
0/
#465000
b10 y
b1100000 /"
0Q
0^
b1 x
b1100000 z
b1000010 v
1"
b0 $
b0 B
b0 X
0(
b1000011 T
b100001 G
b100001 V
b100001 _
b100 i
b10 h
b10000100 M
b10000100 g
b10000100 j
b10000100 l
0L
1H
b100000110000001000010 J
b100000110000001000010 o
b100000110000001000010 u
b10 n
0I
b10 <
1/
#470000
0/
#475000
b11 f
b101 i
b1000011 G
b1000011 V
b1000011 _
b10000110 T
0"
b0 1"
b0 <
03
1/
#480000
0/
#485000
1Q
b1100 T
b10000110 G
b10000110 V
b10000110 _
b110 i
b100 f
11
b0 :
07
1/
#490000
0/
#495000
1I
0)
b101 f
b111 i
b1100 G
b1100 V
b1100 _
b11001 T
b1 ;
1/
#500000
0/
#505000
0Q
1^
b110011 T
b11001 G
b11001 V
b11001 _
b1000 i
b110 f
1L
0H
1)
b100000110000101000010 *
b100000110000101000010 D
b100000110000101000010 *"
b0 +"
0)"
b1 %"
b1100000 '"
b1000010 ("
b10 ;
b1100001 ,"
b1 &"
b1 }
1/
#510000
0/
#515000
0^
b10 x
0)
0L
1H
b1000000110000001000010 J
b1000000110000001000010 o
b1000000110000001000010 u
b1 n
b10100000 p
b100 m
b10000100 q
b1000 M
b1000 g
b1000 j
b1000 l
b11 h
b1001 i
b110011 G
b110011 V
b110011 _
b1100110 T
b100 t
b10000100 s
b1100001 =
b1 <
1/
#520000
0/
#525000
1^
b11001100 T
b1100110 G
b1100110 V
b1100110 _
b1010 i
b111 f
1L
0H
1)
b10000000100000110000101000010 *
b10000000100000110000101000010 D
b10000000100000110000101000010 *"
b1 +"
1)"
b10 %"
b0 <
b11 ;
1/
#530000
0/
#535000
b100 y
b10100000 /"
0^
b1 x
b10100000 z
b10000100 v
0)
0L
1H
b100001010000010000100 J
b100001010000010000100 o
b100001010000010000100 u
b100000 p
b0 m
b1000 q
b10000 M
b10000 g
b10000 j
b10000 l
b100 h
b1011 i
b11001100 G
b11001100 V
b11001100 _
b10011000 T
b0 t
b1000 s
b1 <
1/
#540000
0/
#545000
1^
b110000 T
b10011000 G
b10011000 V
b10011000 _
b1100 i
b1000 f
1L
0H
1)
b100001010000110000100 *
b100001010000110000100 D
b100001010000110000100 *"
b0 +"
0)"
b1 %"
b10100000 '"
b10000100 ("
b0 <
b100 ;
b10100001 ,"
b1 !"
1/
#550000
0/
#555000
b0 y
b100000 /"
0^
b100000 z
b1000 v
1Q
0)
0L
1H
b100000010000000001000 J
b100000010000000001000 o
b100000010000000001000 u
b10 n
b10000 q
b100001 M
b100001 g
b100001 j
b100001 l
b101 h
b1101 i
b110000 G
b110000 V
b110000 _
b1100000 T
b10000 s
b10100001 =
b1 <
1/
#560000
0/
#565000
1^
b11000001 T
b1100000 G
b1100000 V
b1100000 _
b1110 i
b1001 f
1L
0H
1)
b100000010000100001000 *
b100000010000100001000 D
b100000010000100001000 *"
b100000 '"
b1000 ("
b0 <
b101 ;
b100001 ,"
b1 {
1/
#570000
0/
#575000
0^
b10 x
b10000 v
0)
0L
1H
b1000000010000000010000 J
b1000000010000000010000 o
b1000000010000000010000 u
b1 n
b1000000 p
b1 m
b100001 q
b1000011 M
b1000011 g
b1000011 j
b1000011 l
b110 h
b1111 i
b11000001 G
b11000001 V
b11000001 _
b10000011 T
b1 t
b100001 s
b100001 =
b1 <
1/
#580000
0/
#585000
1^
b111 T
b10000011 G
b10000011 V
b10000011 _
b10000 i
b1010 f
1L
0H
1)
b1000000010001000010000 *
b1000000010001000010000 D
b1000000010001000010000 *"
b10 %"
b10000 ("
b0 <
b110 ;
b100010 ,"
b10 &"
b10 {
1/
#590000
0/
#595000
b1 y
b1000000 /"
0^
b1 x
b1000000 z
b100001 v
0)
0L
1H
b100000100000000100001 J
b100000100000000100001 o
b100000100000000100001 u
b11 n
b1100000 p
b10 m
b1000011 q
b10000110 M
b10000110 g
b10000110 j
b10000110 l
b111 h
b10001 i
b111 G
b111 V
b111 _
b1111 T
b10 t
b1000011 s
b100010 =
b1 <
1/
#600000
0/
#605000
0Q
1^
b11111 T
b1111 G
b1111 V
b1111 _
b10010 i
b1011 f
1L
0H
1)
b100000100000100100001 *
b100000100000100100001 D
b100000100000100100001 *"
b1 %"
b1000000 '"
b100001 ("
b0 <
b111 ;
b1000001 ,"
b1 &"
b1 |
1/
#610000
0/
#615000
b10 y
b1100000 /"
0^
b11 x
b1100000 z
b1000011 v
1Q
0)
0L
1H
b1100000110000001000011 J
b1100000110000001000011 o
b1100000110000001000011 u
b10 n
b10100000 p
b100 m
b10000110 q
b1100 M
b1100 g
b1100 j
b1100 l
b1000 h
b10011 i
b11111 G
b11111 V
b11111 _
b111110 T
b100 t
b10000110 s
b1000001 =
b1 <
1/
#620000
0/
#625000
1^
b1111101 T
b111110 G
b111110 V
b111110 _
b10100 i
b1100 f
1L
0H
1)
b1000000110001001000011 *
b1000000110001001000011 D
b1000000110001001000011 *"
b11 %"
b1100000 '"
b1000011 ("
b0 <
b1000 ;
b1100010 ,"
b10 &"
b10 }
1/
#630000
0/
#635000
b100 y
b10100000 /"
0^
b10 x
b10100000 z
b10000110 v
0)
0L
1H
b1000001010000010000110 J
b1000001010000010000110 o
b1000001010000010000110 u
b11 n
b100000 p
b0 m
b1100 q
b11001 M
b11001 g
b11001 j
b11001 l
b1001 h
b10101 i
b1111101 G
b1111101 V
b1111101 _
b11111011 T
b0 t
b1100 s
b1100010 =
b1 <
1/
#640000
0/
#645000
0Q
1^
b11110111 T
b11111011 G
b11111011 V
b11111011 _
b10110 i
b1101 f
1L
0H
1)
b1000001010001010000110 *
b1000001010001010000110 D
b1000001010001010000110 *"
b10 %"
b10100000 '"
b10000110 ("
b0 <
b1001 ;
b10100010 ,"
b10 !"
1/
#650000
0/
#655000
b0 y
b100000 /"
0^
b11 x
b100000 z
b1100 v
1Q
0)
0L
1H
b1100000010000000001100 J
b1100000010000000001100 o
b1100000010000000001100 u
b100 n
b11001 q
b110011 M
b110011 g
b110011 j
b110011 l
b1010 h
b10111 i
b11110111 G
b11110111 V
b11110111 _
b11101110 T
b11001 s
b10100010 =
b1 <
1/
#660000
0/
#665000
1^
b11011101 T
b11101110 G
b11101110 V
b11101110 _
b11000 i
b1110 f
1L
0H
1)
b1100000010001100001100 *
b1100000010001100001100 D
b1100000010001100001100 *"
b11 %"
b100000 '"
b1100 ("
b0 <
b1010 ;
b100011 ,"
b11 &"
b11 {
1/
#670000
0/
#675000
0^
b100 x
b11001 v
0)
0L
1H
b10000000010000000011001 J
b10000000010000000011001 o
b10000000010000000011001 u
b10 n
b1000000 p
b1 m
b110011 q
b1100110 M
b1100110 g
b1100110 j
b1100110 l
b1011 h
b11001 i
b11011101 G
b11011101 V
b11011101 _
b10111011 T
b1 t
b110011 s
b100011 =
b1 <
1/
#680000
0/
#685000
1^
b1110111 T
b10111011 G
b10111011 V
b10111011 _
b11010 i
b1111 f
1L
0H
1)
b10000000010010000011001 *
b10000000010010000011001 D
b10000000010010000011001 *"
b100 %"
b11001 ("
b0 <
b1011 ;
b100100 ,"
b100 &"
b100 {
1/
#690000
0/
#695000
b1 y
b1000000 /"
0^
b10 x
b1000000 z
b110011 v
0)
0L
1H
b1000000100000000110011 J
b1000000100000000110011 o
b1000000100000000110011 u
b1 n
b10000000 p
b11 m
b1100110 q
b11001100 M
b11001100 g
b11001100 j
b11001100 l
b1100 h
b11011 i
b1110111 G
b1110111 V
b1110111 _
b11101111 T
b11 t
b1100110 s
b100100 =
b1 <
1/
#700000
0/
#705000
1^
b11011111 T
b11101111 G
b11101111 V
b11101111 _
b11100 i
1a
b10000 f
1L
0H
1)
b1000000100001000110011 *
b1000000100001000110011 D
b1000000100001000110011 *"
b10 %"
b1000000 '"
b110011 ("
b0 <
b1100 ;
b1000010 ,"
b10 &"
b10 |
1/
#710000
0/
#715000
b11 y
b10000000 /"
0^
b1 x
b10000000 z
b1100110 v
0`
0Q
0)
0L
1H
b100001000000001100110 J
b100001000000001100110 o
b100001000000001100110 u
b11100000 p
b110 m
b11001100 q
0F
b10011000 M
b10011000 g
b10011000 j
b10011000 l
b1101 h
b11101 i
b11011111 G
b11011111 V
b11011111 _
b10111111 T
b110 t
b11001100 s
b1000010 =
b1 <
1/
#720000
0/
#725000
1^
0E
1L
0H
1)
b100001000000101100110 *
b100001000000101100110 D
b100001000000101100110 *"
b1 %"
b10000000 '"
b1100110 ("
b0 <
b1101 ;
b10000001 ,"
b1 &"
b1 ~
1/
#730000
0/
#735000
b110 y
b11100000 /"
0^
b11100000 z
b11001100 v
0)
0L
1H
b100001110000011001100 J
b100001110000011001100 o
b100001110000011001100 u
b11 n
b10100000 p
b100 m
b10011000 q
b110000 M
b110000 g
b110000 j
b110000 l
0a
b1111 f
b1110 h
b100 t
b10011000 s
b10000001 =
b1 <
1/
#740000
0/
#745000
1^
1F
1L
0H
1)
b100001110000111001100 *
b100001110000111001100 D
b100001110000111001100 *"
b11100000 '"
b11001100 ("
b0 <
b1110 ;
b11100001 ,"
b1 #"
1/
#750000
0/
#755000
b100 y
b10100000 /"
0^
b11 x
b10100000 z
b10011000 v
1`
1Q
0)
0L
1H
b1100001010000010011000 J
b1100001010000010011000 o
b1100001010000010011000 u
b1000000 p
b1 m
b110000 q
b1100000 M
b1100000 g
b1100000 j
b1100000 l
b1110 f
b1111 h
1E
b10111111 G
b10111111 V
b10111111 _
b1111110 T
b1 t
b110000 s
b11100001 =
b1 <
1/
#760000
0/
#765000
0Q
1^
b11111101 T
b1111110 G
b1111110 V
b1111110 _
b11110 i
b1111 f
1L
0H
1)
b1100001010001110011000 *
b1100001010001110011000 D
b1100001010001110011000 *"
b11 %"
b10100000 '"
b10011000 ("
b0 <
b1111 ;
b10100011 ,"
b11 &"
b11 !"
1/
#770000
0/
#775000
b1 y
b1000000 /"
0^
b1000000 z
b110000 v
1Q
0)
0L
1H
b1100000100000000110000 J
b1100000100000000110000 o
b1100000100000000110000 u
b100 n
b1100000 p
b10 m
b1100000 q
b11000001 M
b11000001 g
b11000001 j
b11000001 l
b10000 h
b11111 i
b11111101 G
b11111101 V
b11111101 _
b11111010 T
b10 t
b1100000 s
b10100011 =
b1 <
1/
#780000
0/
#785000
0Q
1^
b11110101 T
b11111010 G
b11111010 V
b11111010 _
b0 i
1a
b10000 f
1L
0H
1)
b1100000100001100110000 *
b1100000100001100110000 D
b1100000100001100110000 *"
b1000000 '"
b110000 ("
b0 <
16
19
15
b100 4
b100 ?
b100 O
b100 2"
b10000 ;
b1000011 ,"
b11 |
1/
#790000
0/
#795000
b10 y
b1100000 /"
0^
b100 x
b1100000 z
b1100000 v
0`
0)
0L
1H
b10000000110000001100000 J
b10000000110000001100000 o
b10000000110000001100000 u
b10 n
b11100000 p
b110 m
b11000001 q
0F
b10000011 M
b10000011 g
b10000011 j
b10000011 l
b10001 h
b1 i
b11110101 G
b11110101 V
b11110101 _
b11101010 T
1!
1'
b110 t
b11000001 s
b1 <
1/
#800000
0/
#805000
1^
1%
1\
0!
0'
0E
1L
0H
1)
b1100000110001101100000 *
b1100000110001101100000 D
b1100000110001101100000 *"
b100 %"
b1100000 '"
b1100000 ("
b10 <
b1100011 ,"
b11 }
1/
#810000
0/
#815000
b110 y
b11100000 /"
0^
b10 x
b11100000 z
b11000001 v
0)
0L
1H
b1000001110000011000001 J
b1000001110000011000001 o
b1000001110000011000001 u
b100 n
b10100000 p
b100 m
b10000011 q
b111 M
b111 g
b111 j
b111 l
0a
b1111 f
b10010 h
0U
0%
b100 t
b10000011 s
b0 <
09
05
1/
#820000
0/
#825000
1^
1F
1L
0H
1)
b1000001110001011000001 *
b1000001110001011000001 D
b1000001110001011000001 *"
b10 %"
b11100000 '"
b11000001 ("
06
b11100010 ,"
b10 &"
b10 #"
1/
#830000
0/
#835000
b100 y
b10100000 /"
0^
b100 x
b10100000 z
b10000011 v
0)
0L
1H
b10000001010000010000011 J
b10000001010000010000011 o
b10000001010000010000011 u
b101 n
b100000 p
b0 m
b111 q
b1111 M
b1111 g
b1111 j
b1111 l
b1110 f
b10011 h
b0 t
b111 s
1/
#840000
0/
#845000
1^
1L
0H
1)
b10000001010010010000011 *
b10000001010010010000011 D
b10000001010010010000011 *"
b100 %"
b10100000 '"
b10000011 ("
b10100100 ,"
b100 &"
b100 !"
1/
#850000
0/
#855000
b0 y
b100000 /"
0^
b101 x
b100000 z
b111 v
0)
0L
1H
b10100000010000000000111 J
b10100000010000000000111 o
b10100000010000000000111 u
b110 n
b1111 q
b11111 M
b11111 g
b11111 j
b11111 l
b1101 f
b10100 h
b1111 s
1/
#860000
0/
#865000
1^
1L
0H
1)
b10100000010010100000111 *
b10100000010010100000111 D
b10100000010010100000111 *"
b101 %"
b100000 '"
b111 ("
b100101 ,"
b101 &"
b101 {
1/
#870000
0/
#875000
0^
b110 x
b1111 v
0)
0L
1H
b11000000010000000001111 J
b11000000010000000001111 o
b11000000010000000001111 u
b111 n
b11111 q
b111110 M
b111110 g
b111110 j
b111110 l
b1100 f
b10101 h
b11111 s
1/
#880000
0/
#885000
1^
1L
0H
1)
b11000000010011000001111 *
b11000000010011000001111 D
b11000000010011000001111 *"
b110 %"
b1111 ("
b100110 ,"
b110 &"
b110 {
1/
#890000
0/
#895000
0^
b111 x
b11111 v
0)
0L
1H
b11100000010000000011111 J
b11100000010000000011111 o
b11100000010000000011111 u
b100 n
b1000000 p
b1 m
b111110 q
b1111101 M
b1111101 g
b1111101 j
b1111101 l
b1011 f
b10110 h
b1 t
b111110 s
1/
#900000
0/
#905000
1^
1L
0H
1)
b11100000010011100011111 *
b11100000010011100011111 D
b11100000010011100011111 *"
b111 %"
b11111 ("
b100111 ,"
b111 &"
b111 {
1/
#910000
0/
#915000
b1 y
b1000000 /"
0^
b100 x
b1000000 z
b111110 v
0)
0L
1H
b10000000100000000111110 J
b10000000100000000111110 o
b10000000100000000111110 u
b10 n
b10000000 p
b11 m
b1111101 q
b11111011 M
b11111011 g
b11111011 j
b11111011 l
b1010 f
b10111 h
b11 t
b1111101 s
1/
#920000
0/
#925000
1^
1L
0H
1)
b10000000100010000111110 *
b10000000100010000111110 D
b10000000100010000111110 *"
b100 %"
b1000000 '"
b111110 ("
b1000100 ,"
b100 &"
b100 |
1/
#930000
0/
#935000
b11 y
b10000000 /"
0^
b10 x
b10000000 z
b1111101 v
0)
0L
1H
b1000001000000001111101 J
b1000001000000001111101 o
b1000001000000001111101 u
b1 n
b100000000 p
b111 m
b11111011 q
b11110111 M
b11110111 g
b11110111 j
b11110111 l
b1001 f
b11000 h
b111 t
b11111011 s
1/
#940000
0/
#945000
1^
1L
0H
1)
b1000001000001001111101 *
b1000001000001001111101 D
b1000001000001001111101 *"
b10 %"
b10000000 '"
b1111101 ("
b10000010 ,"
b10 &"
b10 ~
1/
#950000
0/
#955000
b111 y
b100000000 /"
0^
b1 x
b100000000 z
b11111011 v
0)
0L
1H
b100010000000011111011 J
b100010000000011111011 o
b100010000000011111011 u
b10 n
b11110111 q
b11101110 M
b11101110 g
b11101110 j
b11101110 l
b1000 f
b11001 h
b11110111 s
1/
#960000
0/
#965000
1^
1L
0H
1)
b100010000000111111011 *
b100010000000111111011 D
b100010000000111111011 *"
b1 %"
b100000000 '"
b11111011 ("
b100000001 ,"
b1 &"
b1 $"
1/
#970000
0/
#975000
0^
b10 x
b11110111 v
0)
0L
1H
b1000010000000011110111 J
b1000010000000011110111 o
b1000010000000011110111 u
b11 n
b11101110 q
b11011101 M
b11011101 g
b11011101 j
b11011101 l
b111 f
b11010 h
b11101110 s
1/
