task2/AXI_LFSR/top_module_tb1.vcd
$date
	Thu Apr 03 13:58:39 2025
$end
$version
	Icarus Verilog
$end
$timescale
	1ps
$end
$scope module top_module_tb $end
$var wire 1 ! s_axi_wready $end
$var wire 1 " s_axi_rvalid $end
$var wire 2 # s_axi_rresp [1:0] $end
$var wire 32 $ s_axi_rdata [31:0] $end
$var wire 1 % s_axi_bvalid $end
$var wire 2 & s_axi_bresp [1:0] $end
$var wire 1 ' s_axi_awready $end
$var wire 1 ( s_axi_arready $end
$var wire 1 ) m_axis_tvalid $end
$var wire 32 * m_axis_tdata [31:0] $end
$var parameter 32 + CLK_PERIOD $end
$var parameter 32 , C_AXIL_ADDR_WIDTH $end
$var parameter 32 - C_AXIL_DATA_WIDTH $end
$var parameter 32 . TIMEOUT $end
$var reg 1 / aclk $end
$var reg 1 0 aresetn $end
$var reg 1 1 is_duplicate $end
$var reg 1 2 m_axis_tready $end
$var reg 4 3 output_header [3:0] $end
$var reg 12 4 packet_addr [11:0] $end
$var reg 3 5 packet_bin_idx [2:0] $end
$var reg 8 6 packet_count [7:0] $end
$var reg 4 7 packet_header [3:0] $end
$var reg 8 8 packet_value [7:0] $end
$var reg 4 9 s_axi_araddr [3:0] $end
$var reg 1 : s_axi_arvalid $end
$var reg 4 ; s_axi_awaddr [3:0] $end
$var reg 1 < s_axi_awvalid $end
$var reg 1 = s_axi_bready $end
$var reg 1 > s_axi_rready $end
$var reg 32 ? s_axi_wdata [31:0] $end
$var reg 1 @ s_axi_wvalid $end
$var reg 64 A status [63:0] $end
$var reg 32 B temp [31:0] $end
$var integer 32 C capture_idx [31:0] $end
$var integer 32 D i [31:0] $end
$var integer 32 E timeout_counter [31:0] $end
$scope function bin_range $end
$var reg 3 F bin [2:0] $end
$upscope $end
$scope function decode_bin $end
$var reg 12 G addr [11:0] $end
$upscope $end
$scope module u_top $end
$var wire 1 / aclk $end
$var wire 1 0 aresetn $end
$var wire 1 2 m_axis_tready $end
$var wire 4 H s_axi_araddr [3:0] $end
$var wire 1 : s_axi_arvalid $end
$var wire 4 I s_axi_awaddr [3:0] $end
$var wire 1 < s_axi_awvalid $end
$var wire 1 = s_axi_bready $end
$var wire 1 > s_axi_rready $end
$var wire 32 J s_axi_wdata [31:0] $end
$var wire 1 @ s_axi_wvalid $end
$var wire 1 ! s_axi_wready $end
$var wire 1 " s_axi_rvalid $end
$var wire 2 K s_axi_rresp [1:0] $end
$var wire 32 L s_axi_rdata [31:0] $end
$var wire 1 % s_axi_bvalid $end
$var wire 2 M s_axi_bresp [1:0] $end
$var wire 1 ' s_axi_awready $end
$var wire 1 ( s_axi_arready $end
$var wire 1 ) m_axis_tvalid $end
$var wire 32 N m_axis_tdata [31:0] $end
$var wire 1 O lfsr_stream_valid $end
$var wire 1 P lfsr_stream_ready $end
$var wire 32 Q lfsr_stream_data [31:0] $end
$var wire 1 R hist_stream_valid $end
$var wire 1 S hist_stream_ready $end
$var wire 32 T hist_stream_data [31:0] $end
$var wire 1 U fifo_stream_valid $end
$var wire 1 V fifo_stream_ready $end
$var wire 32 W fifo_stream_data [31:0] $end
$scope module u_axil $end
$var wire 1 / aclk $end
$var wire 1 0 aresetn $end
$var wire 4 X s_axi_araddr [3:0] $end
$var wire 1 : s_axi_arvalid $end
$var wire 4 Y s_axi_awaddr [3:0] $end
$var wire 1 < s_axi_awvalid $end
$var wire 1 = s_axi_bready $end
$var wire 1 > s_axi_rready $end
$var wire 32 Z s_axi_wdata [31:0] $end
$var wire 1 @ s_axi_wvalid $end
$var wire 1 P m_axis_tready $end
$var wire 1 [ feedback $end
$var parameter 32 \ C_AXIL_ADDR_WIDTH $end
$var parameter 32 ] C_AXIL_DATA_WIDTH $end
$var reg 8 ^ lfsr_reg [7:0] $end
$var reg 1 _ lfsr_running $end
$var reg 32 ` m_axis_tdata [31:0] $end
$var reg 1 O m_axis_tvalid $end
$var reg 1 ( s_axi_arready $end
$var reg 1 ' s_axi_awready $end
$var reg 2 a s_axi_bresp [1:0] $end
$var reg 1 % s_axi_bvalid $end
$var reg 32 b s_axi_rdata [31:0] $end
$var reg 2 c s_axi_rresp [1:0] $end
$var reg 1 " s_axi_rvalid $end
$var reg 1 ! s_axi_wready $end
$var reg 8 d seed_reg [7:0] $end
$var reg 1 e start_reg $end
$var reg 1 f stop_reg $end
$var reg 8 g taps_reg [7:0] $end
$upscope $end
$scope module u_fifo $end
$var wire 1 / aclk $end
$var wire 1 0 aresetn $end
$var wire 1 h read_enable $end
$var wire 32 i s_axis_tdata [31:0] $end
$var wire 1 O s_axis_tvalid $end
$var wire 1 j write_enable $end
$var wire 1 V m_axis_tready $end
$var wire 1 k fifo_full $end
$var wire 1 l fifo_empty $end
$var parameter 32 m DATA_WIDTH $end
$var parameter 32 n DEPTH $end
$var parameter 32 o PTR_WIDTH $end
$var reg 5 p count [4:0] $end
$var reg 32 q m_axis_tdata [31:0] $end
$var reg 1 U m_axis_tvalid $end
$var reg 5 r read_ptr [4:0] $end
$var reg 1 P s_axis_tready $end
$var reg 5 s write_ptr [4:0] $end
$upscope $end
$scope module u_fifo_logger $end
$var wire 1 / aclk $end
$var wire 1 0 aresetn $end
$var wire 32 t fifo_data [31:0] $end
$var wire 1 U fifo_valid $end
$var integer 32 u file [31:0] $end
$upscope $end
$scope module u_hist $end
$var wire 1 / aclk $end
$var wire 1 0 aresetn $end
$var wire 32 v s_axis_tdata [31:0] $end
$var wire 1 U s_axis_tvalid $end
$var wire 1 S m_axis_tready $end
$var reg 3 w bin_index [2:0] $end
$var reg 8 x count [7:0] $end
$var reg 32 y m_axis_tdata [31:0] $end
$var reg 1 R m_axis_tvalid $end
$var reg 1 V s_axis_tready $end
$var reg 12 z storage_addr [11:0] $end
$var reg 8 { value [7:0] $end
$var integer 32 | i [31:0] $end
$scope function get_bin_index $end
$var reg 8 } value [7:0] $end
$upscope $end
$scope function get_storage_address $end
$var reg 3 ~ bin [2:0] $end
$upscope $end
$upscope $end
$scope module u_ram $end
$var wire 1 / aclk $end
$var wire 1 0 aresetn $end
$var wire 1 2 m_axis_tready $end
$var wire 32 !" s_axis_tdata [31:0] $end
$var wire 1 R s_axis_tvalid $end
$var wire 8 "" value [7:0] $end
$var wire 4 #" header [3:0] $end
$var wire 8 $" count [7:0] $end
$var wire 3 %" bin_index [2:0] $end
$var wire 12 &" bin_addr [11:0] $end
$var reg 8 '" bin0_counter [7:0] $end
$var reg 8 (" bin1_counter [7:0] $end
$var reg 8 )" bin2_counter [7:0] $end
$var reg 8 *" bin3_counter [7:0] $end
$var reg 8 +" bin4_counter [7:0] $end
$var reg 8 ," bin5_counter [7:0] $end
$var reg 8 -" bin6_counter [7:0] $end
$var reg 8 ." bin7_counter [7:0] $end
$var reg 8 /" count_in [7:0] $end
$var reg 8 0" count_out [7:0] $end
$var reg 12 1" current_bin_addr [11:0] $end
$var reg 8 2" current_value [7:0] $end
$var reg 1 3" is_duplicate $end
$var reg 32 4" m_axis_tdata [31:0] $end
$var reg 1 ) m_axis_tvalid $end
$var reg 4 5" output_header [3:0] $end
$var reg 1 S s_axis_tready $end
$var reg 12 6" write_addr [11:0] $end
$var integer 32 7" i [31:0] $end
$scope function get_bin_counter $end
$var reg 3 8" idx [2:0] $end
$upscope $end
$scope function get_bin_index $end
$var reg 12 9" addr [11:0] $end
$upscope $end
$upscope $end
$upscope $end
$scope task axil_read $end
$var reg 4 :" addr [3:0] $end
$var reg 32 ;" data [31:0] $end
$upscope $end
$scope task axil_write $end
$var reg 4 <" addr [3:0] $end
$var reg 32 =" data [31:0] $end
$upscope $end
$upscope $end
$enddefinitions $end
$comment Show the parameter values. $end
$dumpall
b100 o
b10000 n
b100000 m
b100000 ]
b100 \
b10011100010000 .
b100000 -
b100 ,
b1010 +
$end
#0
$dumpvars
bx ="
bx <"
bx ;"
bx :"
bx 9"
bx 8"
bx 7"
bx 6"
bx 5"
bx 4"
x3"
bx 2"
bx 1"
bx 0"
bx /"
bx ."
bx -"
bx ,"
bx +"
bx *"
bx )"
bx ("
bx '"
bx &"
bx %"
bx $"
bx #"
bx ""
bx !"
bx ~
bx }
bx |
bx {
bx z
bx y
bx x
bx w
bx v
b10000000000000000000000000000011 u
bx t
bx s
bx r
bx q
bx p
xl
xk
xj
bx i
xh
bx g
xf
xe
bx d
bx c
bx b
bx a
bx `
x_
bx ^
x[
bx Z
bx Y
bx X
bx W
xV
xU
bx T
xS
xR
bx Q
xP
xO
bx N
bx M
bx L
bx K
bx J
bx I
bx H
bx G
bx F
bx E
b1000 D
b0 C
bx B
bx A
0@
bx ?
0>
0=
0<
bx ;
0:
bx 9
bx 8
bx 7
bx 6
bx 5
bx 4
b0 3
02
x1
00
0/
bx *
x)
x(
x'
bx &
x%
bx $
bx #
x"
x!
$end
#5000
0[
0j
0h
b10110100 g
b1 d
0f
0e
b0 &
b0 M
b0 a
0%
0!
0'
b0 $
b0 L
b0 b
b0 #
b0 K
b0 c
0"
0(
0_
b1 ^
0O
b0 Q
b0 `
b0 i
b0 s
b0 r
1l
0k
b0 p
b0 W
b0 q
b0 t
b0 v
0U
1P
1V
0R
b0 1"
b0 2"
b0 0"
b0 /"
b0 5"
03"
b0 ."
b0 -"
b0 ,"
b0 +"
b0 *"
b0 )"
b0 ("
b0 '"
0)
1S
b1000 |
b100000000 7"
1/
#10000
0/
#15000
b100000000 7"
b1000 |
1/
#20000
0/
#25000
b1000 |
b100000000 7"
1/
#30000
0/
#35000
b100000000 7"
b1000 |
1/
#40000
0/
#45000
10
1/
#50000
0/
#55000
1/
#60000
0/
#65000
b0 E
1>
1:
b0 9
b0 H
b0 X
b0 :"
bx 3
1/
#70000
0/
#75000
1(
b1 E
1/
#80000
0/
#85000
1"
0(
b10 E
1/
#90000
0/
#95000
0"
b0 ;"
b0 E
0:
1/
#100000
0/
#105000
1:
b100 9
b100 H
b100 X
b100 :"
b0 B
1>
1/
#110000
0/
#115000
1(
b1 E
1/
#120000
0/
#125000
1"
0(
b10 E
1/
#130000
0/
#135000
0"
b0 E
0:
1/
#140000
0/
#145000
1:
b1000 9
b1000 H
b1000 X
b1000 :"
1>
1/
#150000
0/
#155000
1(
b1 E
1/
#160000
0/
#165000
1"
b1 $
b1 L
b1 b
0(
b10 E
1/
#170000
0/
#175000
0"
b1 ;"
b0 E
0:
1/
#180000
0/
#185000
1:
b1100 9
b1100 H
b1100 X
b1100 :"
b1 B
1>
1/
#190000
0/
#195000
1(
b1 E
1/
#200000
0/
#205000
1"
b10110100 $
b10110100 L
b10110100 b
0(
b10 E
1/
#210000
0/
#215000
0"
b10110100 ;"
b0 E
0:
1/
#220000
0/
#225000
1=
1@
b111 ?
b111 J
b111 Z
1<
b1000 ;
b1000 I
b1000 Y
b111 ="
b1000 <"
b10110100 B
0>
1/
#230000
0/
#235000
1!
1'
b1 E
1/
#240000
0/
#245000
1%
b111 d
0!
0'
b10 E
1/
#250000
0/
#255000
0%
b0 E
0@
0<
1/
#260000
0/
#265000
1@
b1101 ?
b1101 J
b1101 Z
1<
b1100 ;
b1100 I
b1100 Y
b1101 ="
b1100 <"
1=
1/
#270000
0/
#275000
1!
1'
b1 E
1/
#280000
0/
#285000
1[
1%
b1101 g
0!
0'
b10 E
1/
#290000
0/
#295000
0%
b0 E
0@
0<
1/
#300000
0/
#305000
1>
1:
b1000 9
b1000 H
b1000 X
b1000 :"
0=
1/
#310000
0/
#315000
1(
b1 E
1/
#320000
0/
#325000
1"
b111 $
b111 L
b111 b
0(
b10 E
1/
#330000
0/
#335000
0"
b111 ;"
b0 E
0:
1/
#340000
0/
#345000
1:
b1100 9
b1100 H
b1100 X
b1100 :"
b111 B
1>
1/
#350000
0/
#355000
1(
b1 E
1/
#360000
0/
#365000
1"
b1101 $
b1101 L
b1101 b
0(
b10 E
1/
#370000
0/
#375000
0"
b1101 ;"
b0 E
0:
1/
#380000
0/
#385000
1=
1@
b1 ?
b1 J
b1 Z
1<
b0 ;
b0 I
b0 Y
b1 ="
b0 <"
b1101 B
0>
1/
#390000
0/
#395000
1!
1'
b1 E
1/
#400000
0/
#405000
1%
1e
0!
0'
b10 E
1/
#410000
0/
#415000
0[
0e
1_
b111 ^
0%
b0 E
0@
0<
1/
#420000
0/
#425000
1j
b1110 ^
1O
b111 Q
b111 `
b111 i
12
0=
1/
#430000
0/
#435000
1h
b111 W
b111 q
b111 t
b111 v
1U
0l
b1 p
b1 s
b1110 Q
b1110 `
b1110 i
b11100 ^
b1 E
1/
#440000
0/
#445000
1[
0h
b0 #"
b111000 ^
b11100 Q
b11100 `
b11100 i
b10 s
b1 r
0V
1R
b0xxxxxxxxxxxxxxxxxxxxxxxxxxxx T
b0xxxxxxxxxxxxxxxxxxxxxxxxxxxx y
b0xxxxxxxxxxxxxxxxxxxxxxxxxxxx !"
b1 x
b100000 z
b0 w
b111 {
b10 E
b0 ~
b111 }
1/
#450000
0/
#455000
1h
1)
b100000000xxxxxxxxxxxxxxxxxxxx *
b100000000xxxxxxxxxxxxxxxxxxxx N
b100000000xxxxxxxxxxxxxxxxxxxx 4"
b1 5"
x3"
bx /"
bx 1"
bx 2"
1V
0R
b10 p
b11 s
b111000 Q
b111000 `
b111000 i
b1110001 ^
b11 E
1/
#460000
0/
#465000
b0 %"
b100000 9"
0h
b1 $"
b100000 &"
b111 ""
b11100011 ^
b1110001 Q
b1110001 `
b1110001 i
b100 s
b10 r
b1110 W
b1110 q
b1110 t
b1110 v
0V
1R
b100000010000000000111 T
b100000010000000000111 y
b100000010000000000111 !"
b10 x
0)
b0 F
b111010101110000011011000110100101100011011000010111010001100101 A
01
b0 5
b0 6
b1 7
b100 E
1/
#470000
0/
#475000
1h
0[
1)
b100000010000100000111 *
b100000010000100000111 N
b100000010000100000111 4"
b0 5"
03"
b1 /"
b100000 1"
b111 2"
1V
0R
b11 p
b101 s
b11100011 Q
b11100011 `
b11100011 i
b11000111 ^
b100001 6"
b1 0"
b1 '"
b0 E
b1 C
1/
#480000
0/
#485000
0h
b10 $"
b10001110 ^
b11000111 Q
b11000111 `
b11000111 i
b110 s
b11 r
b11100 W
b11100 q
b11100 t
b11100 v
0V
1R
b1000000010000000000111 T
b1000000010000000000111 y
b1000000010000000000111 !"
b11 x
b1110 {
0)
b10011100110010101110111 A
b100001 G
b111 8
b100001 4
b1 6
b0 7
b1 E
b1110 }
1/
#490000
0/
#495000
1h
1)
b10000000100000010000100000111 *
b10000000100000010000100000111 N
b10000000100000010000100000111 4"
b1 5"
13"
b10 /"
1V
0R
b100 p
b111 s
b10001110 Q
b10001110 `
b10001110 i
b11100 ^
b0 E
b10 C
1/
#500000
0/
#505000
1[
0h
b11 $"
b1110 ""
b111000 ^
b11100 Q
b11100 `
b11100 i
b1000 s
b100 r
b111000 W
b111000 q
b111000 t
b111000 v
0V
1R
b1100000010000000001110 T
b1100000010000000001110 y
b1100000010000000001110 !"
b100 x
b11100 {
0)
b111010101110000011011000110100101100011011000010111010001100101 A
11
b1 7
b1 E
b11100 }
1/
#510000
0/
#515000
1h
1)
b1000000010001000001110 *
b1000000010001000001110 N
b1000000010001000001110 4"
b0 5"
03"
b11 /"
b1110 2"
1V
0R
b101 p
b1001 s
b111000 Q
b111000 `
b111000 i
b1110001 ^
b100010 6"
b10 0"
b10 '"
b0 E
b11 C
1/
#520000
0/
#525000
0h
b100 $"
b11100 ""
b11100011 ^
b1110001 Q
b1110001 `
b1110001 i
b1010 s
b101 r
b1110001 W
b1110001 q
b1110001 t
b1110001 v
0V
1R
b10000000010000000011100 T
b10000000010000000011100 y
b10000000010000000011100 !"
b1 x
b1000000 z
b1 w
b111000 {
0)
b10011100110010101110111 A
01
b100010 G
b1110 8
b100010 4
b10 6
b0 7
b1 E
b1 ~
b111000 }
1/
#530000
0/
#535000
1h
0[
1)
b1100000010001100011100 *
b1100000010001100011100 N
b1100000010001100011100 4"
b100 /"
b11100 2"
1V
0R
b110 p
b1011 s
b11100011 Q
b11100011 `
b11100011 i
b11000111 ^
b100011 6"
b11 0"
b11 '"
b0 E
b100 C
1/
#540000
0/
#545000
b1 %"
b1000000 9"
0h
b1 $"
b1000000 &"
b111000 ""
b10001110 ^
b11000111 Q
b11000111 `
b11000111 i
b1100 s
b110 r
b11100011 W
b11100011 q
b11100011 t
b11100011 v
0V
1R
b100000100000000111000 T
b100000100000000111000 y
b100000100000000111000 !"
b10000000 z
b11 w
b1110001 {
0)
b10011100110010101110111 A
b100011 G
b11100 8
b100011 4
b11 6
b1 E
b11 ~
b1110001 }
1/
#550000
0/
#555000
1h
1)
b100000100000100111000 *
b100000100000100111000 N
b100000100000100111000 4"
b1 /"
b1000000 1"
b111000 2"
1V
0R
b111 p
b1101 s
b10001110 Q
b10001110 `
b10001110 i
b11100 ^
b1000001 6"
b1 0"
b1 ("
b0 E
b101 C
1/
#560000
0/
#565000
b11 %"
b10000000 9"
1[
0h
b10000000 &"
b1110001 ""
b111000 ^
b11100 Q
b11100 `
b11100 i
b1110 s
b111 r
b11000111 W
b11000111 q
b11000111 t
b11000111 v
0V
1R
b100001000000001110001 T
b100001000000001110001 y
b100001000000001110001 !"
b100000000 z
b111 w
b11100011 {
0)
b1 F
b10011100110010101110111 A
b1 5
b1000001 G
b111000 8
b1000001 4
b1 6
b1 E
b111 ~
b11100011 }
1/
#570000
0/
#575000
1h
1)
b100001000000101110001 *
b100001000000101110001 N
b100001000000101110001 4"
b10000000 1"
b1110001 2"
1V
0R
b1000 p
b1111 s
b111000 Q
b111000 `
b111000 i
b1110001 ^
b10000001 6"
b1 *"
b0 E
b110 C
1/
#580000
0/
#585000
b111 %"
b100000000 9"
0h
b100000000 &"
b11100011 ""
b11100011 ^
b1110001 Q
b1110001 `
b1110001 i
b10000 s
b1000 r
b10001110 W
b10001110 q
b10001110 t
b10001110 v
0V
1R
b100010000000011100011 T
b100010000000011100011 y
b100010000000011100011 !"
b11100000 z
b110 w
b11000111 {
0)
b11 F
b10011100110010101110111 A
b11 5
b10000001 G
b1110001 8
b10000001 4
b1 E
b110 ~
b11000111 }
1/
#590000
0/
#595000
1h
0[
1)
b100010000000111100011 *
b100010000000111100011 N
b100010000000111100011 4"
b100000000 1"
b11100011 2"
1V
0R
b1001 p
b10001 s
b11100011 Q
b11100011 `
b11100011 i
b11000111 ^
b100000001 6"
b1 ."
b0 E
b111 C
1/
#600000
0/
#605000
b110 %"
b11100000 9"
0h
b11100000 &"
b11000111 ""
b10001110 ^
b11000111 Q
b11000111 `
b11000111 i
b10010 s
b1001 r
b11100 W
b11100 q
b11100 t
b11100 v
0V
1R
b100001110000011000111 T
b100001110000011000111 y
b100001110000011000111 !"
b10100000 z
b100 w
b10001110 {
0)
b111 F
b10011100110010101110111 A
b111 5
b100000001 G
b11100011 8
b100000001 4
b1 E
b100 ~
b10001110 }
1/
#610000
0/
#615000
1h
1)
b100001110000111000111 *
b100001110000111000111 N
b100001110000111000111 4"
b11100000 1"
b11000111 2"
1V
0R
b1010 p
b10011 s
b10001110 Q
b10001110 `
b10001110 i
b11100 ^
b11100001 6"
b1 -"
b0 E
b1000 C
1/
#620000
0/
#625000
b100 %"
b10100000 9"
1[
0h
b10100000 &"
b10001110 ""
b111000 ^
b11100 Q
b11100 `
b11100 i
b10100 s
b1010 r
b111000 W
b111000 q
b111000 t
b111000 v
0V
1R
b100001010000010001110 T
b100001010000010001110 y
b100001010000010001110 !"
b101 x
b100000 z
b0 w
b11100 {
0)
b110 F
b10011100110010101110111 A
b110 5
b11100001 G
b11000111 8
b11100001 4
b1 E
b0 ~
b11100 }
1/
#630000
0/
#635000
1h
1)
b100001010000110001110 *
b100001010000110001110 N
b100001010000110001110 4"
b10100000 1"
b10001110 2"
1V
0R
b1011 p
b10101 s
b111000 Q
b111000 `
b111000 i
b1110001 ^
b10100001 6"
b1 +"
b0 E
b1001 C
1/
#640000
0/
#645000
b0 %"
b100000 9"
0h
b101 $"
b100000 &"
b11100 ""
b11100011 ^
b1110001 Q
b1110001 `
b1110001 i
b10110 s
b1011 r
b1110001 W
b1110001 q
b1110001 t
b1110001 v
0V
1R
b10100000010000000011100 T
b10100000010000000011100 y
b10100000010000000011100 !"
b10 x
b1000000 z
b1 w
b111000 {
0)
b100 F
b10011100110010101110111 A
b100 5
b10100001 G
b10001110 8
b10100001 4
b1 E
b1 ~
b111000 }
1/
#650000
0/
#655000
1h
0[
1)
b10000001100000010001100011100 *
b10000001100000010001100011100 N
b10000001100000010001100011100 4"
b1 5"
13"
b101 /"
b100000 1"
b11100 2"
1V
0R
b1100 p
b10111 s
b11100011 Q
b11100011 `
b11100011 i
b11000111 ^
b11 0"
b0 E
b1010 C
1/
#660000
0/
#665000
b1 %"
b1000000 9"
0h
b10 $"
b1000000 &"
b111000 ""
b10001110 ^
b11000111 Q
b11000111 `
b11000111 i
b11000 s
b1100 r
b11100011 W
b11100011 q
b11100011 t
b11100011 v
0V
1R
b1000000100000000111000 T
b1000000100000000111000 y
b1000000100000000111000 !"
b10000000 z
b11 w
b1110001 {
0)
b0 F
b111010101110000011011000110100101100011011000010111010001100101 A
11
b0 5
b100011 G
b11100 8
b100011 4
b11 6
b1 7
b1 E
b11 ~
b1110001 }
1/
#670000
0/
#675000
1h
1)
b10000000100000100000100111000 *
b10000000100000100000100111000 N
b10000000100000100000100111000 4"
b10 /"
b1000000 1"
b111000 2"
1V
0R
b1101 p
b11001 s
b10001110 Q
b10001110 `
b10001110 i
b11100 ^
b1 0"
b0 E
b1011 C
1/
#680000
0/
#685000
b11 %"
b10000000 9"
1[
0h
b10000000 &"
b1110001 ""
b111000 ^
b11100 Q
b11100 `
b11100 i
b11010 s
b1101 r
b11000111 W
b11000111 q
b11000111 t
b11000111 v
0V
1R
b1000001000000001110001 T
b1000001000000001110001 y
b1000001000000001110001 !"
b100000000 z
b111 w
b11100011 {
0)
b1 F
b111010101110000011011000110100101100011011000010111010001100101 A
11
b1 5
b1000001 G
b111000 8
b1000001 4
b1 6
b1 E
b111 ~
b11100011 }
1/
#690000
0/
#695000
1h
1)
b10000000100001000000101110001 *
b10000000100001000000101110001 N
b10000000100001000000101110001 4"
b10000000 1"
b1110001 2"
1V
0R
b1110 p
b11011 s
b111000 Q
b111000 `
b111000 i
b1110001 ^
b0 E
b1100 C
1/
#700000
0/
#705000
b111 %"
b100000000 9"
0h
b100000000 &"
b11100011 ""
b11100011 ^
b1110001 Q
b1110001 `
b1110001 i
b11100 s
b1110 r
b10001110 W
b10001110 q
b10001110 t
b10001110 v
0V
1R
b1000010000000011100011 T
b1000010000000011100011 y
b1000010000000011100011 !"
b11100000 z
b110 w
b11000111 {
0)
b11 F
b111010101110000011011000110100101100011011000010111010001100101 A
11
b11 5
b10000001 G
b1110001 8
b10000001 4
b1 E
b110 ~
b11000111 }
1/
#710000
0/
#715000
1h
0[
1)
b10000000100010000000111100011 *
b10000000100010000000111100011 N
b10000000100010000000111100011 4"
b100000000 1"
b11100011 2"
1V
0R
b1111 p
b11101 s
b11100011 Q
b11100011 `
b11100011 i
b11000111 ^
b0 E
b1101 C
1/
#720000
0/
#725000
b110 %"
b11100000 9"
0h
b11100000 &"
b11000111 ""
b10001110 ^
b11000111 Q
b11000111 `
b11000111 i
b11110 s
b1111 r
b11100 W
b11100 q
b11100 t
b11100 v
0V
1R
b1000001110000011000111 T
b1000001110000011000111 y
b1000001110000011000111 !"
b10100000 z
b100 w
b10001110 {
0)
b111 F
b111010101110000011011000110100101100011011000010111010001100101 A
11
b111 5
b100000001 G
b11100011 8
b100000001 4
b1 E
b100 ~
b10001110 }
1/
#730000
0/
#735000
1h
1)
b10000000100001110000111000111 *
b10000000100001110000111000111 N
b10000000100001110000111000111 4"
b11100000 1"
b11000111 2"
1V
0R
1k
b10000 p
b11111 s
b10001110 Q
b10001110 `
b10001110 i
b11100 ^
b0 E
b1110 C
1/
#740000
0/
#745000
b100 %"
b10100000 9"
1[
0j
0h
b10100000 &"
b10001110 ""
b111000 ^
b11100 Q
b11100 `
b11100 i
b0 s
b10000 r
b111000 W
b111000 q
b111000 t
b111000 v
0P
0V
1R
b1000001010000010001110 T
b1000001010000010001110 y
b1000001010000010001110 !"
b110 x
b100000 z
b0 w
b11100 {
0)
b110 F
b111010101110000011011000110100101100011011000010111010001100101 A
11
b110 5
b11100001 G
b11000111 8
b11100001 4
b1 E
b0 ~
b11100 }
1/
#750000
0/
#755000
1h
1)
b10000000100001010000110001110 *
b10000000100001010000110001110 N
b10000000100001010000110001110 4"
b10100000 1"
b10001110 2"
1V
0R
0O
b0 E
b1111 C
1/
#760000
0/
#765000
b0 %"
b100000 9"
0h
b110 $"
b100000 &"
b11100 ""
b10001 r
0k
b1111 p
b1110001 W
b1110001 q
b1110001 t
b1110001 v
0V
1R
b11000000010000000011100 T
b11000000010000000011100 y
b11000000010000000011100 !"
b11 x
b1000000 z
b1 w
b111000 {
0)
b100 F
b111010101110000011011000110100101100011011000010111010001100101 A
11
b100 5
b10100001 G
b10001110 8
b10100001 4
b1 E
b1 ~
b111000 }
1/
#770000
0/
#775000
1h
1)
b10000001100000010001100011100 *
b10000001100000010001100011100 N
b10000001100000010001100011100 4"
b110 /"
b100000 1"
b11100 2"
1V
0R
1P
b11 0"
b0 E
b10000 C
1/
#780000
0/
#785000
b1 %"
b1000000 9"
1j
0h
b11 $"
b1000000 &"
b111000 ""
b1110001 ^
1O
b111000 Q
b111000 `
b111000 i
b10010 r
b1110 p
b11100011 W
b11100011 q
b11100011 t
b11100011 v
0V
1R
b1100000100000000111000 T
b1100000100000000111000 y
b1100000100000000111000 !"
b10000000 z
b11 w
b1110001 {
0)
b0 F
b111010101110000011011000110100101100011011000010111010001100101 A
11
b0 5
b100011 G
b11100 8
b100011 4
b11 6
b1 E
b11 ~
b1110001 }
1/
#790000
0/
#795000
1h
1)
b10000000100000100000100111000 *
b10000000100000100000100111000 N
b10000000100000100000100111000 4"
b11 /"
b1000000 1"
b111000 2"
1V
0R
b1111 p
b1 s
b1110001 Q
b1110001 `
b1110001 i
b11100011 ^
b1 0"
b0 E
b10001 C
1/
#800000
0/
#805000
b11 %"
b10000000 9"
0[
0h
b10000000 &"
b1110001 ""
b11000111 ^
b11100011 Q
b11100011 `
b11100011 i
b10 s
b10011 r
b11000111 W
b11000111 q
b11000111 t
b11000111 v
0V
1R
b1100001000000001110001 T
b1100001000000001110001 y
b1100001000000001110001 !"
b100000000 z
b111 w
b11100011 {
0)
b1 F
b111010101110000011011000110100101100011011000010111010001100101 A
11
b1 5
b1000001 G
b111000 8
b1000001 4
b1 6
b1 E
b111 ~
b11100011 }
1/
#810000
0/
#815000
1h
1)
b10000000100001000000101110001 *
b10000000100001000000101110001 N
b10000000100001000000101110001 4"
b10000000 1"
b1110001 2"
1V
0R
1k
b10000 p
b11 s
b11000111 Q
b11000111 `
b11000111 i
b10001110 ^
b0 E
b10010 C
1/
#820000
0/
#825000
b111 %"
b100000000 9"
0j
0h
b100000000 &"
b11100011 ""
b11100 ^
b10001110 Q
b10001110 `
b10001110 i
b100 s
b10100 r
b10001110 W
b10001110 q
b10001110 t
b10001110 v
0P
0V
1R
b1100010000000011100011 T
b1100010000000011100011 y
b1100010000000011100011 !"
b11100000 z
b110 w
b11000111 {
0)
b11 F
b111010101110000011011000110100101100011011000010111010001100101 A
11
b11 5
b10000001 G
b1110001 8
b10000001 4
b1 E
b110 ~
b11000111 }
1/
#830000
0/
#835000
1h
1)
b10000000100010000000111100011 *
b10000000100010000000111100011 N
b10000000100010000000111100011 4"
b100000000 1"
b11100011 2"
1V
0R
0O
b0 E
b10011 C
1/
#840000
0/
#845000
b110 %"
b11100000 9"
0h
b11100000 &"
b11000111 ""
b10101 r
0k
b1111 p
b11100 W
b11100 q
b11100 t
b11100 v
0V
1R
b1100001110000011000111 T
b1100001110000011000111 y
b1100001110000011000111 !"
b10100000 z
b100 w
b10001110 {
0)
b111 F
b111010101110000011011000110100101100011011000010111010001100101 A
11
b111 5
b100000001 G
b11100011 8
b100000001 4
b1 E
b100 ~
b10001110 }
1/
#850000
0/
#855000
1h
1)
b10000000100001110000111000111 *
b10000000100001110000111000111 N
b10000000100001110000111000111 4"
b11100000 1"
b11000111 2"
1V
0R
1P
b0 E
b10100 C
1/
#860000
0/
#865000
b100 %"
b10100000 9"
1[
1j
0h
b10100000 &"
b10001110 ""
b111000 ^
1O
b11100 Q
b11100 `
b11100 i
b10110 r
b1110 p
b111000 W
b111000 q
b111000 t
b111000 v
0V
1R
b1100001010000010001110 T
b1100001010000010001110 y
b1100001010000010001110 !"
b111 x
b100000 z
b0 w
b11100 {
0)
b110 F
b111010101110000011011000110100101100011011000010111010001100101 A
11
b110 5
b11100001 G
b11000111 8
b11100001 4
b1 E
b0 ~
b11100 }
1/
#870000
0/
#875000
1h
1)
b10000000100001010000110001110 *
b10000000100001010000110001110 N
b10000000100001010000110001110 4"
b10100000 1"
b10001110 2"
1V
0R
b1111 p
b101 s
b111000 Q
b111000 `
b111000 i
b1110001 ^
b0 E
b10101 C
1/
#880000
0/
#885000
b0 %"
b100000 9"
0h
b111 $"
b100000 &"
b11100 ""
b11100011 ^
b1110001 Q
b1110001 `
b1110001 i
b110 s
b10111 r
b1110001 W
b1110001 q
b1110001 t
b1110001 v
0V
1R
b11100000010000000011100 T
b11100000010000000011100 y
b11100000010000000011100 !"
b100 x
b1000000 z
b1 w
b111000 {
0)
b100 F
b111010101110000011011000110100101100011011000010111010001100101 A
11
b100 5
b10100001 G
b10001110 8
b10100001 4
b1 E
b1 ~
b111000 }
1/
#890000
0/
