task1/singlecycle/simulations/riscv_waveform.vcd
$date
	Mon Mar 24 00:57:52 2025
$end
$version
	Icarus Verilog
$end
$timescale
	1s
$end
$scope module tb_riscv_sc $end
$var reg 1 ! clk $end
$var reg 1 " start $end
$scope module riscv_DUT $end
$var wire 1 # branchMuxSel $end
$var wire 1 ! clk $end
$var wire 1 " start $end
$var wire 1 $ zero $end
$var wire 32 % writedata [31:0] $end
$var wire 32 & rs2 [31:0] $end
$var wire 32 ' rs1 [31:0] $end
$var wire 1 ( regwrite $end
$var wire 32 ) readata [31:0] $end
$var wire 32 * pco [31:0] $end
$var wire 32 + pci [31:0] $end
$var wire 32 , nextPC [31:0] $end
$var wire 1 - memwrite $end
$var wire 1 . memtoreg $end
$var wire 1 / memread $end
$var wire 32 0 inst [31:0] $end
$var wire 32 1 imm [31:0] $end
$var wire 1 2 ctz $end
$var wire 32 3 branchTarget [31:0] $end
$var wire 1 4 branch $end
$var wire 32 5 B [31:0] $end
$var wire 1 6 ALUsrc $end
$var wire 2 7 ALUop [1:0] $end
$var wire 4 8 ALUctl [3:0] $end
$var wire 32 9 ALUOut [31:0] $end
$scope module m_ALU $end
$var wire 1 $ zero $end
$var wire 1 : slti $end
$var wire 1 ; slt $end
$var wire 32 < B [31:0] $end
$var wire 4 = ALUCtl [3:0] $end
$var wire 32 > A [31:0] $end
$var reg 32 ? ALUOut [31:0] $end
$scope function count_trailing_zeros $end
$upscope $end
$upscope $end
$scope module m_ALUCtrl $end
$var wire 3 @ funct3 [2:0] $end
$var wire 1 A funct7 $end
$var wire 1 2 ctz $end
$var wire 2 B ALUOp [1:0] $end
$var reg 4 C ALUCtl [3:0] $end
$upscope $end
$scope module m_Adder_1 $end
$var wire 32 D b [31:0] $end
$var wire 32 E sum [31:0] $end
$var wire 32 F a [31:0] $end
$upscope $end
$scope module m_Adder_2 $end
$var wire 32 G sum [31:0] $end
$var wire 32 H b [31:0] $end
$var wire 32 I a [31:0] $end
$upscope $end
$scope module m_Control $end
$var wire 7 J opcode [6:0] $end
$var reg 2 K ALUOp [1:0] $end
$var reg 1 6 ALUSrc $end
$var reg 1 4 branch $end
$var reg 1 2 ctz $end
$var reg 1 / memRead $end
$var reg 1 - memWrite $end
$var reg 1 . memtoReg $end
$var reg 1 ( regWrite $end
$upscope $end
$scope module m_DataMemory $end
$var wire 32 L address [31:0] $end
$var wire 1 ! clk $end
$var wire 1 / memRead $end
$var wire 1 - memWrite $end
$var wire 1 " rst $end
$var wire 32 M writeData [31:0] $end
$var reg 32 N readData [31:0] $end
$upscope $end
$scope module m_ImmGen $end
$var wire 32 O inst [31:0] $end
$var reg 32 P imm [31:0] $end
$upscope $end
$scope module m_InstMem $end
$var wire 32 Q readAddr [31:0] $end
$var wire 32 R inst [31:0] $end
$upscope $end
$scope module m_Mux_ALU $end
$var wire 32 S s1 [31:0] $end
$var wire 1 6 sel $end
$var wire 32 T s0 [31:0] $end
$var wire 32 U out [31:0] $end
$var parameter 32 V size $end
$upscope $end
$scope module m_Mux_PC $end
$var wire 32 W s0 [31:0] $end
$var wire 32 X s1 [31:0] $end
$var wire 1 # sel $end
$var wire 32 Y out [31:0] $end
$var parameter 32 Z size $end
$upscope $end
$scope module m_Mux_WriteData $end
$var wire 32 [ s0 [31:0] $end
$var wire 32 \ s1 [31:0] $end
$var wire 1 . sel $end
$var wire 32 ] out [31:0] $end
$var parameter 32 ^ size $end
$upscope $end
$scope module m_PC $end
$var wire 1 ! clk $end
$var wire 32 _ pc_i [31:0] $end
$var wire 1 " rst $end
$var reg 32 ` pc_o [31:0] $end
$upscope $end
$scope module m_Register $end
$var wire 1 ! clk $end
$var wire 5 a readReg1 [4:0] $end
$var wire 5 b readReg2 [4:0] $end
$var wire 1 ( regWrite $end
$var wire 1 " rst $end
$var wire 32 c writeData [31:0] $end
$var wire 5 d writeReg [4:0] $end
$var wire 32 e readData2 [31:0] $end
$var wire 32 f readData1 [31:0] $end
$upscope $end
$upscope $end
$upscope $end
$enddefinitions $end
$comment Show the parameter values. $end
$dumpall
b100000 ^
b100000 Z
b100000 V
$end
#0
$dumpvars
bx f
bx e
bx d
b0 c
bx b
bx a
bx `
bx _
b0 ]
b0 \
b0 [
bx Y
bx X
bx W
bx U
bx T
bx S
bx R
bx Q
bx P
bx O
b0 N
bx M
b0 L
bx K
bx J
bx I
bx H
bx G
bx F
bx E
b100 D
bx C
bx B
xA
bx @
b0 ?
bx >
bx =
bx <
x;
x:
b0 9
bx 8
bx 7
x6
bx 5
x4
bx 3
x2
bx 1
bx 0
x/
x.
x-
bx ,
bx +
bx *
b0 )
x(
bx '
bx &
b0 %
1$
x#
0"
0!
$end
#5
0$
1:
1;
b10100011 %
b10100011 ]
b10100011 c
0#
b10100011 9
b10100011 ?
b10100011 L
b10100011 [
b10100011 5
b10100011 <
b10100011 U
b0 8
b0 =
b0 C
b0 &
b0 M
b0 T
b0 e
b0 '
b0 >
b0 f
04
0/
0.
0-
16
1(
02
b0 7
b0 B
b0 K
b100 +
b100 Y
b100 _
b0 @
0A
b1000 d
b11 b
b0 a
b10011 J
b10100011 3
b10100011 G
b10100011 X
b10100011 1
b10100011 H
b10100011 P
b10100011 S
b1010001100000000010000010011 0
b1010001100000000010000010011 O
b1010001100000000010000010011 R
b100 ,
b100 E
b100 W
b0 *
b0 F
b0 I
b0 Q
b0 `
1!
#10
0!
1"
#15
0:
b1111100 %
b1111100 ]
b1111100 c
b1111100 9
b1111100 ?
b1111100 L
b1111100 [
b10000000 '
b10000000 >
b10000000 f
b11111111111111111111111111111100 5
b11111111111111111111111111111100 <
b11111111111111111111111111111100 U
1A
b10 d
b11100 b
b10 a
b11111111111111111111111111111100 1
b11111111111111111111111111111100 H
b11111111111111111111111111111100 P
b11111111111111111111111111111100 S
b11111111110000010000000100010011 0
b11111111110000010000000100010011 O
b11111111110000010000000100010011 R
b1000 +
b1000 Y
b1000 _
b0 3
b0 G
b0 X
b1000 ,
b1000 E
b1000 W
b100 *
b100 F
b100 I
b100 Q
b100 `
1!
#20
0!
#25
1$
0;
b1001 8
b1001 =
b1001 C
b10100011 &
b10100011 M
b10100011 T
b10100011 e
1-
16
0(
b0 5
b0 <
b0 U
b0 %
b0 ]
b0 c
b10 @
0A
b0 d
b1000 b
b100011 J
b0 1
b0 H
b0 P
b0 S
b0 9
b0 ?
b0 L
b0 [
b100000010010000000100011 0
b100000010010000000100011 O
b100000010010000000100011 R
b1100 +
b1100 Y
b1100 _
b1111100 '
b1111100 >
b1111100 f
b1000 3
b1000 G
b1000 X
b1100 ,
b1100 E
b1100 W
b1000 *
b1000 F
b1000 I
b1000 Q
b1000 `
1!
#30
0!
#35
b0 8
b0 =
b0 C
b0 &
b0 M
b0 T
b0 e
b0 '
b0 >
b0 f
b10 7
b10 B
b10 K
1(
0-
06
b0 @
b1000 d
b0 b
b0 a
b110011 J
b10000110011 0
b10000110011 O
b10000110011 R
b10000 +
b10000 Y
b10000 _
b1100 3
b1100 G
b1100 X
b10000 ,
b10000 E
b10000 W
b1100 *
b1100 F
b1100 I
b1100 Q
b1100 `
1!
#40
0!
#45
16
1(
b0 7
b0 B
b0 K
b101 d
b10011 J
b1010010011 0
b1010010011 O
b1010010011 R
b10100 +
b10100 Y
b10100 _
b10000 3
b10000 G
b10000 X
b10100 ,
b10100 E
b10100 W
b10000 *
b10000 F
b10000 I
b10000 Q
b10000 `
1!
#50
0!
#55
0$
b1 %
b1 ]
b1 c
b1 9
b1 ?
b1 L
b1 [
1:
1;
b1001 8
b1001 =
b1001 C
b111 5
b111 <
b111 U
b10 @
b110 d
b111 b
b101 a
b111 1
b111 H
b111 P
b111 S
b11100101010001100010011 0
b11100101010001100010011 O
b11100101010001100010011 R
b11000 +
b11000 Y
b11000 _
b11011 3
b11011 G
b11011 X
b11000 ,
b11000 E
b11000 W
b10100 *
b10100 F
b10100 I
b10100 Q
b10100 `
1!
#60
0!
#65
0:
0;
b1 %
b1 ]
b1 c
b1 9
b1 ?
b1 L
b1 [
b1010 8
b1010 =
b1010 C
b1 '
b1 >
b1 f
b1 7
b1 B
b1 K
14
06
0(
b0 5
b0 <
b0 U
b0 @
b1100 d
b0 b
b110 a
b1100011 J
b1100 1
b1100 H
b1100 P
b1100 S
b110000011001100011 0
b110000011001100011 O
b110000011001100011 R
b11100 +
b11100 Y
b11100 _
b100100 3
b100100 G
b100100 X
b11100 ,
b11100 E
b11100 W
b11000 *
b11000 F
b11000 I
b11000 Q
b11000 `
1!
#70
0!
#75
1:
1;
b1 5
b1 <
b1 U
b0 8
b0 =
b0 C
b0 '
b0 >
b0 f
16
1(
04
b0 7
b0 B
b0 K
b101 d
b1 b
b101 a
b10011 J
b1 1
b1 H
b1 P
b1 S
b100101000001010010011 0
b100101000001010010011 O
b100101000001010010011 R
b100000 +
b100000 Y
b100000 _
b11101 3
b11101 G
b11101 X
b100000 ,
b100000 E
b100000 W
b11100 *
b11100 F
b11100 I
b11100 Q
b11100 `
1!
#80
0!
#85
1#
1$
b1010 8
b1010 =
b1010 C
b1 7
b1 B
b1 K
14
06
0(
b0 5
b0 <
b0 U
0:
0;
b0 %
b0 ]
b0 c
1A
b10101 d
b0 b
b0 a
b1100011 J
b11111111111111111111111111110100 1
b11111111111111111111111111110100 H
b11111111111111111111111111110100 P
b11111111111111111111111111110100 S
b0 9
b0 ?
b0 L
b0 [
b11111110000000000000101011100011 0
b11111110000000000000101011100011 O
b11111110000000000000101011100011 R
b10100 +
b10100 Y
b10100 _
b0 '
b0 >
b0 f
b10100 3
b10100 G
b10100 X
b100100 ,
b100100 E
b100100 W
b100000 *
b100000 F
b100000 I
b100000 Q
b100000 `
1!
#90
0!
#95
0$
b1 %
b1 ]
b1 c
b1 9
b1 ?
b1 L
b1 [
1:
1;
0#
b111 5
b111 <
b111 U
b1001 8
b1001 =
b1001 C
b1 '
b1 >
b1 f
16
1(
04
b0 7
b0 B
b0 K
b10 @
0A
b110 d
b111 b
b101 a
b10011 J
b111 1
b111 H
b111 P
b111 S
b11100101010001100010011 0
b11100101010001100010011 O
b11100101010001100010011 R
b11000 +
b11000 Y
b11000 _
b11011 3
b11011 G
b11011 X
b11000 ,
b11000 E
b11000 W
b10100 *
b10100 F
b10100 I
b10100 Q
b10100 `
1!
#100
0!
#105
0:
0;
b1 %
b1 ]
b1 c
b1 9
b1 ?
b1 L
b1 [
b1010 8
b1010 =
b1010 C
b1 7
b1 B
b1 K
14
06
0(
b0 5
b0 <
b0 U
b0 @
b1100 d
b0 b
b110 a
b1100011 J
b1100 1
b1100 H
b1100 P
b1100 S
b110000011001100011 0
b110000011001100011 O
b110000011001100011 R
b11100 +
b11100 Y
b11100 _
b100100 3
b100100 G
b100100 X
b11100 ,
b11100 E
b11100 W
b11000 *
b11000 F
b11000 I
b11000 Q
b11000 `
1!
#110
0!
#115
b10 %
b10 ]
b10 c
b10 9
b10 ?
b10 L
b10 [
b1 5
b1 <
b1 U
b0 8
b0 =
b0 C
16
1(
04
b0 7
b0 B
b0 K
b101 d
b1 b
b101 a
b10011 J
b1 1
b1 H
b1 P
b1 S
b100101000001010010011 0
b100101000001010010011 O
b100101000001010010011 R
b100000 +
b100000 Y
b100000 _
b11101 3
b11101 G
b11101 X
b100000 ,
b100000 E
b100000 W
b11100 *
b11100 F
b11100 I
b11100 Q
b11100 `
1!
#120
0!
#125
1#
1$
0;
b1010 8
b1010 =
b1010 C
b1 7
b1 B
b1 K
14
06
0(
b0 5
b0 <
b0 U
b0 %
b0 ]
b0 c
1A
b10101 d
b0 b
b0 a
b1100011 J
b11111111111111111111111111110100 1
b11111111111111111111111111110100 H
b11111111111111111111111111110100 P
b11111111111111111111111111110100 S
b0 9
b0 ?
b0 L
b0 [
b11111110000000000000101011100011 0
b11111110000000000000101011100011 O
b11111110000000000000101011100011 R
b10100 +
b10100 Y
b10100 _
b0 '
b0 >
b0 f
b10100 3
b10100 G
b10100 X
b100100 ,
b100100 E
b100100 W
b100000 *
b100000 F
b100000 I
b100000 Q
b100000 `
1!
#130
0!
#135
0$
b1 %
b1 ]
b1 c
b1 9
b1 ?
b1 L
b1 [
1:
1;
0#
b111 5
b111 <
b111 U
b1001 8
b1001 =
b1001 C
b10 '
b10 >
b10 f
16
1(
04
b0 7
b0 B
b0 K
b10 @
0A
b110 d
b111 b
b101 a
b10011 J
b111 1
b111 H
b111 P
b111 S
b11100101010001100010011 0
b11100101010001100010011 O
b11100101010001100010011 R
b11000 +
b11000 Y
b11000 _
b11011 3
b11011 G
b11011 X
b11000 ,
b11000 E
b11000 W
b10100 *
b10100 F
b10100 I
b10100 Q
b10100 `
1!
#140
0!
#145
0:
0;
b1 %
b1 ]
b1 c
b1 9
b1 ?
b1 L
b1 [
b1010 8
b1010 =
b1010 C
b1 '
b1 >
b1 f
b1 7
b1 B
b1 K
14
06
0(
b0 5
b0 <
b0 U
b0 @
b1100 d
b0 b
b110 a
b1100011 J
b1100 1
b1100 H
b1100 P
b1100 S
b110000011001100011 0
b110000011001100011 O
b110000011001100011 R
b11100 +
b11100 Y
b11100 _
b100100 3
b100100 G
b100100 X
b11100 ,
b11100 E
b11100 W
b11000 *
b11000 F
b11000 I
b11000 Q
b11000 `
1!
#150
0!
#155
b11 %
b11 ]
b11 c
b11 9
b11 ?
b11 L
b11 [
b1 5
b1 <
b1 U
b0 8
b0 =
b0 C
b10 '
b10 >
b10 f
16
1(
04
b0 7
b0 B
b0 K
b101 d
b1 b
b101 a
b10011 J
b1 1
b1 H
b1 P
b1 S
b100101000001010010011 0
b100101000001010010011 O
b100101000001010010011 R
b100000 +
b100000 Y
b100000 _
b11101 3
b11101 G
b11101 X
b100000 ,
b100000 E
b100000 W
b11100 *
b11100 F
b11100 I
b11100 Q
b11100 `
1!
#160
0!
#165
1#
1$
0;
b1010 8
b1010 =
b1010 C
b1 7
b1 B
b1 K
14
06
0(
b0 5
b0 <
b0 U
b0 %
b0 ]
b0 c
1A
b10101 d
b0 b
b0 a
b1100011 J
b11111111111111111111111111110100 1
b11111111111111111111111111110100 H
b11111111111111111111111111110100 P
b11111111111111111111111111110100 S
b0 9
b0 ?
b0 L
b0 [
b11111110000000000000101011100011 0
b11111110000000000000101011100011 O
b11111110000000000000101011100011 R
b10100 +
b10100 Y
b10100 _
b0 '
b0 >
b0 f
b10100 3
b10100 G
b10100 X
b100100 ,
b100100 E
b100100 W
b100000 *
b100000 F
b100000 I
b100000 Q
b100000 `
1!
#170
0!
#175
0$
b1 %
b1 ]
b1 c
b1 9
b1 ?
b1 L
b1 [
1:
1;
0#
b111 5
b111 <
b111 U
b1001 8
b1001 =
b1001 C
b11 '
b11 >
b11 f
16
1(
04
b0 7
b0 B
b0 K
b10 @
0A
b110 d
b111 b
b101 a
b10011 J
b111 1
b111 H
b111 P
b111 S
b11100101010001100010011 0
b11100101010001100010011 O
b11100101010001100010011 R
b11000 +
b11000 Y
b11000 _
b11011 3
b11011 G
b11011 X
b11000 ,
b11000 E
b11000 W
b10100 *
b10100 F
b10100 I
b10100 Q
b10100 `
1!
#180
0!
#185
0:
0;
b1 %
b1 ]
b1 c
b1 9
b1 ?
b1 L
b1 [
b1010 8
b1010 =
b1010 C
b1 '
b1 >
b1 f
b1 7
b1 B
b1 K
14
06
0(
b0 5
b0 <
b0 U
b0 @
b1100 d
b0 b
b110 a
b1100011 J
b1100 1
b1100 H
b1100 P
b1100 S
b110000011001100011 0
b110000011001100011 O
b110000011001100011 R
b11100 +
b11100 Y
b11100 _
b100100 3
b100100 G
b100100 X
b11100 ,
b11100 E
b11100 W
b11000 *
b11000 F
b11000 I
b11000 Q
b11000 `
1!
#190
0!
#195
b100 %
b100 ]
b100 c
b100 9
b100 ?
b100 L
b100 [
b1 5
b1 <
b1 U
b0 8
b0 =
b0 C
b11 '
b11 >
b11 f
16
1(
04
b0 7
b0 B
b0 K
b101 d
b1 b
b101 a
b10011 J
b1 1
b1 H
b1 P
b1 S
b100101000001010010011 0
b100101000001010010011 O
b100101000001010010011 R
b100000 +
b100000 Y
b100000 _
b11101 3
b11101 G
b11101 X
b100000 ,
b100000 E
b100000 W
b11100 *
b11100 F
b11100 I
b11100 Q
b11100 `
1!
#200
0!
#205
1#
1$
0;
b1010 8
b1010 =
b1010 C
b1 7
b1 B
b1 K
14
06
0(
b0 5
b0 <
b0 U
b0 %
b0 ]
b0 c
1A
b10101 d
b0 b
b0 a
b1100011 J
b11111111111111111111111111110100 1
b11111111111111111111111111110100 H
b11111111111111111111111111110100 P
b11111111111111111111111111110100 S
b0 9
b0 ?
b0 L
b0 [
b11111110000000000000101011100011 0
b11111110000000000000101011100011 O
b11111110000000000000101011100011 R
b10100 +
b10100 Y
b10100 _
b0 '
b0 >
b0 f
b10100 3
b10100 G
b10100 X
b100100 ,
b100100 E
b100100 W
b100000 *
b100000 F
b100000 I
b100000 Q
b100000 `
1!
#210
0!
#215
0$
b1 %
b1 ]
b1 c
b1 9
b1 ?
b1 L
b1 [
1:
1;
0#
b111 5
b111 <
b111 U
b1001 8
b1001 =
b1001 C
b100 '
b100 >
b100 f
16
1(
04
b0 7
b0 B
b0 K
b10 @
0A
b110 d
b111 b
b101 a
b10011 J
b111 1
b111 H
b111 P
b111 S
b11100101010001100010011 0
b11100101010001100010011 O
b11100101010001100010011 R
b11000 +
b11000 Y
b11000 _
b11011 3
b11011 G
b11011 X
b11000 ,
b11000 E
b11000 W
b10100 *
b10100 F
b10100 I
b10100 Q
b10100 `
1!
#220
0!
#225
0:
0;
b1 %
b1 ]
b1 c
b1 9
b1 ?
b1 L
b1 [
b1010 8
b1010 =
b1010 C
b1 '
b1 >
b1 f
b1 7
b1 B
b1 K
14
06
0(
b0 5
b0 <
b0 U
b0 @
b1100 d
b0 b
b110 a
b1100011 J
b1100 1
b1100 H
b1100 P
b1100 S
b110000011001100011 0
b110000011001100011 O
b110000011001100011 R
b11100 +
b11100 Y
b11100 _
b100100 3
b100100 G
b100100 X
b11100 ,
b11100 E
b11100 W
b11000 *
b11000 F
b11000 I
b11000 Q
b11000 `
1!
#230
0!
#235
b101 %
b101 ]
b101 c
b101 9
b101 ?
b101 L
b101 [
b1 5
b1 <
b1 U
b0 8
b0 =
b0 C
b100 '
b100 >
b100 f
16
1(
04
b0 7
b0 B
b0 K
b101 d
b1 b
b101 a
b10011 J
b1 1
b1 H
b1 P
b1 S
b100101000001010010011 0
b100101000001010010011 O
b100101000001010010011 R
b100000 +
b100000 Y
b100000 _
b11101 3
b11101 G
b11101 X
b100000 ,
b100000 E
b100000 W
b11100 *
b11100 F
b11100 I
b11100 Q
b11100 `
1!
#240
0!
#245
1#
1$
0;
b1010 8
b1010 =
b1010 C
b1 7
b1 B
b1 K
14
06
0(
b0 5
b0 <
b0 U
b0 %
b0 ]
b0 c
1A
b10101 d
b0 b
b0 a
b1100011 J
b11111111111111111111111111110100 1
b11111111111111111111111111110100 H
b11111111111111111111111111110100 P
b11111111111111111111111111110100 S
b0 9
b0 ?
b0 L
b0 [
b11111110000000000000101011100011 0
b11111110000000000000101011100011 O
b11111110000000000000101011100011 R
b10100 +
b10100 Y
b10100 _
b0 '
b0 >
b0 f
b10100 3
b10100 G
b10100 X
b100100 ,
b100100 E
b100100 W
b100000 *
b100000 F
b100000 I
b100000 Q
b100000 `
1!
#250
0!
#255
0$
b1 %
b1 ]
b1 c
b1 9
b1 ?
b1 L
b1 [
1:
1;
0#
b111 5
b111 <
b111 U
b1001 8
b1001 =
b1001 C
b101 '
b101 >
b101 f
16
1(
04
b0 7
b0 B
b0 K
b10 @
0A
b110 d
b111 b
b101 a
b10011 J
b111 1
b111 H
b111 P
b111 S
b11100101010001100010011 0
b11100101010001100010011 O
b11100101010001100010011 R
b11000 +
b11000 Y
b11000 _
b11011 3
b11011 G
b11011 X
b11000 ,
b11000 E
b11000 W
b10100 *
b10100 F
b10100 I
b10100 Q
b10100 `
1!
#260
0!
#265
0:
0;
b1 %
b1 ]
b1 c
b1 9
b1 ?
b1 L
b1 [
b1010 8
b1010 =
b1010 C
b1 '
b1 >
b1 f
b1 7
b1 B
b1 K
14
06
0(
b0 5
b0 <
b0 U
b0 @
b1100 d
b0 b
b110 a
b1100011 J
b1100 1
b1100 H
b1100 P
b1100 S
b110000011001100011 0
b110000011001100011 O
b110000011001100011 R
b11100 +
b11100 Y
b11100 _
b100100 3
b100100 G
b100100 X
b11100 ,
b11100 E
b11100 W
b11000 *
b11000 F
b11000 I
b11000 Q
b11000 `
1!
#270
0!
#275
b110 %
b110 ]
b110 c
b110 9
b110 ?
b110 L
b110 [
b1 5
b1 <
b1 U
b0 8
b0 =
b0 C
b101 '
b101 >
b101 f
16
1(
04
b0 7
b0 B
b0 K
b101 d
b1 b
b101 a
b10011 J
b1 1
b1 H
b1 P
b1 S
b100101000001010010011 0
b100101000001010010011 O
b100101000001010010011 R
b100000 +
b100000 Y
b100000 _
b11101 3
b11101 G
b11101 X
b100000 ,
b100000 E
b100000 W
b11100 *
b11100 F
b11100 I
b11100 Q
b11100 `
1!
#280
0!
#285
1#
1$
0;
b1010 8
b1010 =
b1010 C
b1 7
b1 B
b1 K
14
06
0(
b0 5
b0 <
b0 U
b0 %
b0 ]
b0 c
1A
b10101 d
b0 b
b0 a
b1100011 J
b11111111111111111111111111110100 1
b11111111111111111111111111110100 H
b11111111111111111111111111110100 P
b11111111111111111111111111110100 S
b0 9
b0 ?
b0 L
b0 [
b11111110000000000000101011100011 0
b11111110000000000000101011100011 O
b11111110000000000000101011100011 R
b10100 +
b10100 Y
b10100 _
b0 '
b0 >
b0 f
b10100 3
b10100 G
b10100 X
b100100 ,
b100100 E
b100100 W
b100000 *
b100000 F
b100000 I
b100000 Q
b100000 `
1!
#290
0!
#295
0$
b1 %
b1 ]
b1 c
b1 9
b1 ?
b1 L
b1 [
1:
1;
0#
b111 5
b111 <
b111 U
b1001 8
b1001 =
b1001 C
b110 '
b110 >
b110 f
16
1(
04
b0 7
b0 B
b0 K
b10 @
0A
b110 d
b111 b
b101 a
b10011 J
b111 1
b111 H
b111 P
b111 S
b11100101010001100010011 0
b11100101010001100010011 O
b11100101010001100010011 R
b11000 +
b11000 Y
b11000 _
b11011 3
b11011 G
b11011 X
b11000 ,
b11000 E
b11000 W
b10100 *
b10100 F
b10100 I
b10100 Q
b10100 `
1!
#300
0!
#305
0:
0;
b1 %
b1 ]
b1 c
b1 9
b1 ?
b1 L
b1 [
b1010 8
b1010 =
b1010 C
b1 '
b1 >
b1 f
b1 7
b1 B
b1 K
14
06
0(
b0 5
b0 <
b0 U
b0 @
b1100 d
b0 b
b110 a
b1100011 J
b1100 1
b1100 H
b1100 P
b1100 S
b110000011001100011 0
b110000011001100011 O
b110000011001100011 R
b11100 +
b11100 Y
b11100 _
b100100 3
b100100 G
b100100 X
b11100 ,
b11100 E
b11100 W
b11000 *
b11000 F
b11000 I
b11000 Q
b11000 `
1!
#310
0!
#315
b111 %
b111 ]
b111 c
b111 9
b111 ?
b111 L
b111 [
b1 5
b1 <
b1 U
b0 8
b0 =
b0 C
b110 '
b110 >
b110 f
16
1(
04
b0 7
b0 B
b0 K
b101 d
b1 b
b101 a
b10011 J
b1 1
b1 H
b1 P
b1 S
b100101000001010010011 0
b100101000001010010011 O
b100101000001010010011 R
b100000 +
b100000 Y
b100000 _
b11101 3
b11101 G
b11101 X
b100000 ,
b100000 E
b100000 W
b11100 *
b11100 F
b11100 I
b11100 Q
b11100 `
1!
#320
0!
#325
1#
1$
0;
b1010 8
b1010 =
b1010 C
b1 7
b1 B
b1 K
14
06
0(
b0 5
b0 <
b0 U
b0 %
b0 ]
b0 c
1A
b10101 d
b0 b
b0 a
b1100011 J
b11111111111111111111111111110100 1
b11111111111111111111111111110100 H
b11111111111111111111111111110100 P
b11111111111111111111111111110100 S
b0 9
b0 ?
b0 L
b0 [
b11111110000000000000101011100011 0
b11111110000000000000101011100011 O
b11111110000000000000101011100011 R
b10100 +
b10100 Y
b10100 _
b0 '
b0 >
b0 f
b10100 3
b10100 G
b10100 X
b100100 ,
b100100 E
b100100 W
b100000 *
b100000 F
b100000 I
b100000 Q
b100000 `
1!
#330
0!
#335
0#
b111 5
b111 <
b111 U
b1001 8
b1001 =
b1001 C
b111 '
b111 >
b111 f
16
1(
04
b0 7
b0 B
b0 K
b10 @
0A
b110 d
b111 b
b101 a
b10011 J
b111 1
b111 H
b111 P
b111 S
b11100101010001100010011 0
b11100101010001100010011 O
b11100101010001100010011 R
b11000 +
b11000 Y
b11000 _
b11011 3
b11011 G
b11011 X
b11000 ,
b11000 E
b11000 W
b10100 *
b10100 F
b10100 I
b10100 Q
b10100 `
1!
#340
0!
#345
1$
1#
0:
0;
b0 %
b0 ]
b0 c
b0 9
b0 ?
b0 L
b0 [
b1010 8
b1010 =
b1010 C
b0 '
b0 >
b0 f
b1 7
b1 B
b1 K
14
06
0(
b0 5
b0 <
b0 U
b0 @
b1100 d
b0 b
b110 a
b1100011 J
b1100 1
b1100 H
b1100 P
b1100 S
b110000011001100011 0
b110000011001100011 O
b110000011001100011 R
b100100 +
b100100 Y
b100100 _
b100100 3
b100100 G
b100100 X
b11100 ,
b11100 E
b11100 W
b11000 *
b11000 F
b11000 I
b11000 Q
b11000 `
1!
#350
0!
#355
1:
1;
0#
b1010 5
b1010 <
b1010 U
b1111 8
b1111 =
b1111 C
16
1(
04
b0 7
b0 B
b0 K
b110 @
b110 d
b1010 b
b10011 J
b1010 1
b1010 H
b1010 P
b1010 S
b101000110110001100010011 0
b101000110110001100010011 O
b101000110110001100010011 R
b101000 +
b101000 Y
b101000 _
b101110 3
b101110 G
b101110 X
b101000 ,
b101000 E
b101000 W
b100100 *
b100100 F
b100100 I
b100100 Q
b100100 `
1!
#360
0!
#365
b10100011 %
b10100011 ]
b10100011 c
b10100011 )
b10100011 N
b10100011 \
1$
0:
0;
b0 9
b0 ?
b0 L
b0 [
b1001 8
b1001 =
b1001 C
b1111100 '
b1111100 >
b1111100 f
1.
1/
16
1(
b0 5
b0 <
b0 U
b10 @
b1000 d
b0 b
b10 a
b11 J
b0 1
b0 H
b0 P
b0 S
b10010010000000011 0
b10010010000000011 O
b10010010000000011 R
b101100 +
b101100 Y
b101100 _
b101000 3
b101000 G
b101000 X
b101100 ,
b101100 E
b101100 W
b101000 *
b101000 F
b101000 I
b101000 Q
b101000 `
1!
#370
0!
#375
0$
b0 )
b0 N
b0 \
b10000000 %
b10000000 ]
b10000000 c
b10000000 9
b10000000 ?
b10000000 L
b10000000 [
b0 8
b0 =
b0 C
0/
0.
16
1(
b100 5
b100 <
b100 U
b0 @
b10 d
b100 b
b10011 J
b100 1
b100 H
b100 P
b100 S
b10000010000000100010011 0
b10000010000000100010011 O
b10000010000000100010011 R
b110000 +
b110000 Y
b110000 _
b110000 3
b110000 G
b110000 X
b110000 ,
b110000 E
b110000 W
b101100 *
b101100 F
b101100 I
b101100 Q
b101100 `
1!
#380
0!
#385
1$
06
0(
b0 5
b0 <
b0 U
b0 %
b0 ]
b0 c
b0 d
b0 b
b0 a
b0 J
b0 1
b0 H
b0 P
b0 S
b0 9
b0 ?
b0 L
b0 [
b0 0
b0 O
b0 R
b110100 +
b110100 Y
b110100 _
b0 '
b0 >
b0 f
b110000 3
b110000 G
b110000 X
b110100 ,
b110100 E
b110100 W
b110000 *
b110000 F
b110000 I
b110000 Q
b110000 `
1!
#390
0!
#395
x:
x;
bx 5
bx <
bx U
x#
b1111 8
b1111 =
b1111 C
bx &
bx M
bx T
bx e
bx '
bx >
bx f
bx @
xA
bx d
bx b
bx a
bx J
bx 0
bx O
bx R
b11xx00 +
b11xx00 Y
b11xx00 _
b110100 3
b110100 G
b110100 X
b111000 ,
b111000 E
b111000 W
b110100 *
b110100 F
b110100 I
b110100 Q
b110100 `
1!
#400
0!
#405
bx +
bx Y
bx _
bx 3
bx G
bx X
bx ,
bx E
bx W
b11xx00 *
b11xx00 F
b11xx00 I
b11xx00 Q
b11xx00 `
1!
#410
0!
#415
bx *
bx F
bx I
bx Q
bx `
1!
